porquerias:  1 = 0(Non-Hate) 1(Hate)
war:  1 = 1(Non-Hate) 0(Hate)
resentimiento:  1 = 0(Non-Hate) 1(Hate)
guantazo:  1 = 0(Non-Hate) 1(Hate)
guardia:  1 = 0(Non-Hate) 1(Hate)
bajen:  1 = 1(Non-Hate) 0(Hate)
despues:  5 = 4(Non-Hate) 1(Hate)
detuvo:  1 = 1(Non-Hate) 0(Hate)
nominado:  1 = 1(Non-Hate) 0(Hate)
tocarte:  1 = 0(Non-Hate) 1(Hate)
tierra:  2 = 2(Non-Hate) 0(Hate)
cloaca:  1 = 0(Non-Hate) 1(Hate)
escribirlo:  1 = 0(Non-Hate) 1(Hate)
observar:  1 = 0(Non-Hate) 1(Hate)
bien:  19 = 5(Non-Hate) 14(Hate)
tonta:  2 = 1(Non-Hate) 1(Hate)
posteriormente:  1 = 0(Non-Hate) 1(Hate)
visitar:  1 = 0(Non-Hate) 1(Hate)
refugiados:  10 = 3(Non-Hate) 7(Hate)
subir:  1 = 0(Non-Hate) 1(Hate)
skeree:  1 = 1(Non-Hate) 0(Hate)
algum:  1 = 1(Non-Hate) 0(Hate)
misma:  1 = 1(Non-Hate) 0(Hate)
poderosos:  1 = 1(Non-Hate) 0(Hate)
rica:  4 = 2(Non-Hate) 2(Hate)
depp:  1 = 1(Non-Hate) 0(Hate)
activar:  1 = 1(Non-Hate) 0(Hate)
bye:  1 = 0(Non-Hate) 1(Hate)
verga:  4 = 1(Non-Hate) 3(Hate)
nalga:  1 = 0(Non-Hate) 1(Hate)
mantas:  1 = 0(Non-Hate) 1(Hate)
alguna:  2 = 1(Non-Hate) 1(Hate)
descendiente:  1 = 1(Non-Hate) 0(Hate)
sacate:  1 = 1(Non-Hate) 0(Hate)
rpg:  1 = 0(Non-Hate) 1(Hate)
bar:  2 = 2(Non-Hate) 0(Hate)
rubius:  1 = 1(Non-Hate) 0(Hate)
habia:  2 = 2(Non-Hate) 0(Hate)
conocen:  1 = 1(Non-Hate) 0(Hate)
refiere:  1 = 0(Non-Hate) 1(Hate)
novia:  13 = 4(Non-Hate) 9(Hate)
posiciones:  1 = 0(Non-Hate) 1(Hate)
euros:  1 = 0(Non-Hate) 1(Hate)
n:  2 = 1(Non-Hate) 1(Hate)
vete:  2 = 2(Non-Hate) 0(Hate)
venezolanos:  1 = 0(Non-Hate) 1(Hate)
radio:  1 = 1(Non-Hate) 0(Hate)
eliminar:  1 = 0(Non-Hate) 1(Hate)
domingo:  1 = 1(Non-Hate) 0(Hate)
sur:  1 = 1(Non-Hate) 0(Hate)
disculpa:  2 = 1(Non-Hate) 1(Hate)
fundacion:  1 = 0(Non-Hate) 1(Hate)
vasta:  1 = 0(Non-Hate) 1(Hate)
pase:  2 = 2(Non-Hate) 0(Hate)
transmitio:  1 = 1(Non-Hate) 0(Hate)
sino:  1 = 0(Non-Hate) 1(Hate)
cojudos:  1 = 0(Non-Hate) 1(Hate)
falso:  1 = 1(Non-Hate) 0(Hate)
manteros:  6 = 0(Non-Hate) 6(Hate)
bolivar:  1 = 1(Non-Hate) 0(Hate)
terramierdistas:  1 = 1(Non-Hate) 0(Hate)
humanos:  1 = 1(Non-Hate) 0(Hate)
protestas:  1 = 1(Non-Hate) 0(Hate)
cuotas:  1 = 1(Non-Hate) 0(Hate)
hombres:  3 = 3(Non-Hate) 0(Hate)
respondido:  1 = 1(Non-Hate) 0(Hate)
posible:  1 = 0(Non-Hate) 1(Hate)
tuit:  1 = 1(Non-Hate) 0(Hate)
hacerlo:  1 = 1(Non-Hate) 0(Hate)
ano:  8 = 8(Non-Hate) 0(Hate)
mira:  9 = 6(Non-Hate) 3(Hate)
re:  8 = 6(Non-Hate) 2(Hate)
pasado:  1 = 1(Non-Hate) 0(Hate)
fronteriza:  2 = 2(Non-Hate) 0(Hate)
sabemos:  1 = 0(Non-Hate) 1(Hate)
hablas:  4 = 2(Non-Hate) 2(Hate)
estupida:  2 = 0(Non-Hate) 2(Hate)
ensayamos:  1 = 1(Non-Hate) 0(Hate)
comemela:  1 = 1(Non-Hate) 0(Hate)
trato:  1 = 1(Non-Hate) 0(Hate)
negros:  2 = 2(Non-Hate) 0(Hate)
metes:  2 = 2(Non-Hate) 0(Hate)
desaparicion:  1 = 1(Non-Hate) 0(Hate)
regresar:  1 = 1(Non-Hate) 0(Hate)
menendez:  1 = 1(Non-Hate) 0(Hate)
repatriados:  1 = 1(Non-Hate) 0(Hate)
conchetumadre:  1 = 1(Non-Hate) 0(Hate)
harias:  1 = 0(Non-Hate) 1(Hate)
banquetes:  1 = 1(Non-Hate) 0(Hate)
tunez:  1 = 1(Non-Hate) 0(Hate)
deberian:  2 = 0(Non-Hate) 2(Hate)
sevillista:  6 = 0(Non-Hate) 6(Hate)
crack:  1 = 1(Non-Hate) 0(Hate)
deberia:  3 = 3(Non-Hate) 0(Hate)
maltratadas:  1 = 0(Non-Hate) 1(Hate)
alf:  1 = 1(Non-Hate) 0(Hate)
drogas:  1 = 0(Non-Hate) 1(Hate)
debates:  1 = 1(Non-Hate) 0(Hate)
amigos:  4 = 2(Non-Hate) 2(Hate)
mercado:  1 = 1(Non-Hate) 0(Hate)
fabrique:  1 = 1(Non-Hate) 0(Hate)
tele:  1 = 0(Non-Hate) 1(Hate)
burro:  2 = 2(Non-Hate) 0(Hate)
fuerzas:  1 = 1(Non-Hate) 0(Hate)
aparicion:  1 = 1(Non-Hate) 0(Hate)
orita:  1 = 1(Non-Hate) 0(Hate)
teniend:  1 = 1(Non-Hate) 0(Hate)
magayllinera:  1 = 0(Non-Hate) 1(Hate)
resto:  1 = 1(Non-Hate) 0(Hate)
sacar:  1 = 0(Non-Hate) 1(Hate)
mientras:  4 = 1(Non-Hate) 3(Hate)
mil:  5 = 3(Non-Hate) 2(Hate)
chile:  2 = 1(Non-Hate) 1(Hate)
pusiste:  1 = 1(Non-Hate) 0(Hate)
ruido:  1 = 1(Non-Hate) 0(Hate)
mete:  1 = 0(Non-Hate) 1(Hate)
negra:  3 = 1(Non-Hate) 2(Hate)
paripe:  1 = 1(Non-Hate) 0(Hate)
agarraron:  1 = 1(Non-Hate) 0(Hate)
estan:  8 = 4(Non-Hate) 4(Hate)
tan:  10 = 4(Non-Hate) 6(Hate)
uruguay:  1 = 1(Non-Hate) 0(Hate)
subiste:  1 = 1(Non-Hate) 0(Hate)
soportar:  1 = 0(Non-Hate) 1(Hate)
encule:  1 = 1(Non-Hate) 0(Hate)
vean:  2 = 2(Non-Hate) 0(Hate)
menda:  1 = 0(Non-Hate) 1(Hate)
vulnerables:  1 = 1(Non-Hate) 0(Hate)
sidra:  1 = 1(Non-Hate) 0(Hate)
paseaba:  1 = 0(Non-Hate) 1(Hate)
paz:  1 = 1(Non-Hate) 0(Hate)
llevado:  1 = 1(Non-Hate) 0(Hate)
mashup:  1 = 1(Non-Hate) 0(Hate)
nacionalidad:  1 = 0(Non-Hate) 1(Hate)
gallina:  2 = 0(Non-Hate) 2(Hate)
NUMERO:  40 = 28(Non-Hate) 12(Hate)
deje:  2 = 2(Non-Hate) 0(Hate)
prro:  1 = 0(Non-Hate) 1(Hate)
apunalan:  1 = 0(Non-Hate) 1(Hate)
veran:  1 = 0(Non-Hate) 1(Hate)
vaya:  3 = 1(Non-Hate) 2(Hate)
diversitas:  1 = 1(Non-Hate) 0(Hate)
comenzar:  1 = 1(Non-Hate) 0(Hate)
mochilera:  1 = 0(Non-Hate) 1(Hate)
autentico:  2 = 2(Non-Hate) 0(Hate)
cuesta:  1 = 1(Non-Hate) 0(Hate)
culo:  3 = 1(Non-Hate) 2(Hate)
das:  2 = 1(Non-Hate) 1(Hate)
confiscados:  1 = 1(Non-Hate) 0(Hate)
serio:  2 = 1(Non-Hate) 1(Hate)
digas:  2 = 2(Non-Hate) 0(Hate)
usa:  2 = 1(Non-Hate) 1(Hate)
verla:  1 = 1(Non-Hate) 0(Hate)
spice:  2 = 0(Non-Hate) 2(Hate)
inventarse:  2 = 2(Non-Hate) 0(Hate)
crees:  2 = 1(Non-Hate) 1(Hate)
enganifas:  1 = 0(Non-Hate) 1(Hate)
aprovechando:  1 = 1(Non-Hate) 0(Hate)
gane:  1 = 1(Non-Hate) 0(Hate)
supone:  1 = 1(Non-Hate) 0(Hate)
uu:  1 = 1(Non-Hate) 0(Hate)
esterillas:  1 = 0(Non-Hate) 1(Hate)
resistir:  1 = 1(Non-Hate) 0(Hate)
retrasados:  1 = 1(Non-Hate) 0(Hate)
sigue:  1 = 0(Non-Hate) 1(Hate)
piedad:  1 = 0(Non-Hate) 1(Hate)
raval:  1 = 0(Non-Hate) 1(Hate)
ley:  1 = 0(Non-Hate) 1(Hate)
ninguna:  2 = 0(Non-Hate) 2(Hate)
ayudas:  1 = 0(Non-Hate) 1(Hate)
quiza:  1 = 1(Non-Hate) 0(Hate)
asesinato:  1 = 1(Non-Hate) 0(Hate)
hdsptm:  1 = 0(Non-Hate) 1(Hate)
alfonsin:  1 = 0(Non-Hate) 1(Hate)
diarrea:  2 = 0(Non-Hate) 2(Hate)
laa:  1 = 1(Non-Hate) 0(Hate)
terrami:  1 = 1(Non-Hate) 0(Hate)
kylo:  1 = 1(Non-Hate) 0(Hate)
seria:  5 = 2(Non-Hate) 3(Hate)
come:  3 = 0(Non-Hate) 3(Hate)
chrissy:  1 = 0(Non-Hate) 1(Hate)
em:  1 = 0(Non-Hate) 1(Hate)
asesinos:  1 = 1(Non-Hate) 0(Hate)
derecho:  3 = 2(Non-Hate) 1(Hate)
contenian:  1 = 1(Non-Hate) 0(Hate)
quede:  2 = 1(Non-Hate) 1(Hate)
acabar:  1 = 1(Non-Hate) 0(Hate)
negratas:  5 = 0(Non-Hate) 5(Hate)
coman:  2 = 1(Non-Hate) 1(Hate)
extranjera:  1 = 0(Non-Hate) 1(Hate)
efecto:  1 = 1(Non-Hate) 0(Hate)
navidades:  1 = 0(Non-Hate) 1(Hate)
perdiendo:  1 = 1(Non-Hate) 0(Hate)
kills:  1 = 1(Non-Hate) 0(Hate)
largo:  1 = 1(Non-Hate) 0(Hate)
solidaridad:  1 = 0(Non-Hate) 1(Hate)
escribi:  2 = 2(Non-Hate) 0(Hate)
conocias:  1 = 0(Non-Hate) 1(Hate)
happy:  1 = 0(Non-Hate) 1(Hate)
delinquir:  1 = 0(Non-Hate) 1(Hate)
muera:  1 = 0(Non-Hate) 1(Hate)
aaaaaaa:  1 = 1(Non-Hate) 0(Hate)
trabajadores:  1 = 1(Non-Hate) 0(Hate)
londres:  1 = 0(Non-Hate) 1(Hate)
tantos:  2 = 1(Non-Hate) 1(Hate)
apestan:  1 = 1(Non-Hate) 0(Hate)
celosa:  1 = 0(Non-Hate) 1(Hate)
coger:  1 = 0(Non-Hate) 1(Hate)
zebiyaaa:  2 = 0(Non-Hate) 2(Hate)
vd:  1 = 1(Non-Hate) 0(Hate)
malagente:  1 = 0(Non-Hate) 1(Hate)
trepando:  1 = 0(Non-Hate) 1(Hate)
callateeeee:  1 = 0(Non-Hate) 1(Hate)
banas:  1 = 1(Non-Hate) 0(Hate)
plasta:  1 = 1(Non-Hate) 0(Hate)
mentira:  1 = 1(Non-Hate) 0(Hate)
centroamericanos:  1 = 0(Non-Hate) 1(Hate)
devuelva:  1 = 0(Non-Hate) 1(Hate)
acorralen:  1 = 1(Non-Hate) 0(Hate)
forman:  1 = 0(Non-Hate) 1(Hate)
foto:  5 = 3(Non-Hate) 2(Hate)
pro:  1 = 1(Non-Hate) 0(Hate)
trump:  3 = 3(Non-Hate) 0(Hate)
anarquia:  1 = 0(Non-Hate) 1(Hate)
fritas:  1 = 1(Non-Hate) 0(Hate)
poxyran:  1 = 1(Non-Hate) 0(Hate)
mento:  1 = 0(Non-Hate) 1(Hate)
WEB:  160 = 96(Non-Hate) 64(Hate)
prometidas:  1 = 1(Non-Hate) 0(Hate)
giacometti:  1 = 0(Non-Hate) 1(Hate)
arreglos:  1 = 0(Non-Hate) 1(Hate)
espana:  12 = 7(Non-Hate) 5(Hate)
cana:  1 = 0(Non-Hate) 1(Hate)
secreto:  1 = 0(Non-Hate) 1(Hate)
pedofilo:  1 = 1(Non-Hate) 0(Hate)
violabdola:  1 = 1(Non-Hate) 0(Hate)
cristo:  2 = 2(Non-Hate) 0(Hate)
aca:  3 = 2(Non-Hate) 1(Hate)
agredes:  1 = 1(Non-Hate) 0(Hate)
ocurre:  1 = 1(Non-Hate) 0(Hate)
baron:  1 = 1(Non-Hate) 0(Hate)
enviarlos:  1 = 0(Non-Hate) 1(Hate)
podes:  1 = 1(Non-Hate) 0(Hate)
queeeeee:  1 = 0(Non-Hate) 1(Hate)
gilipollas:  3 = 1(Non-Hate) 2(Hate)
emigras:  1 = 1(Non-Hate) 0(Hate)
prueba:  1 = 0(Non-Hate) 1(Hate)
tenian:  1 = 0(Non-Hate) 1(Hate)
masacren:  1 = 1(Non-Hate) 0(Hate)
cogen:  1 = 0(Non-Hate) 1(Hate)
matan:  1 = 1(Non-Hate) 0(Hate)
ilimitada:  1 = 0(Non-Hate) 1(Hate)
adjetivar:  1 = 0(Non-Hate) 1(Hate)
cargando:  1 = 0(Non-Hate) 1(Hate)
recuerda:  3 = 2(Non-Hate) 1(Hate)
maltratadoras:  1 = 0(Non-Hate) 1(Hate)
indios:  2 = 0(Non-Hate) 2(Hate)
papeles:  10 = 5(Non-Hate) 5(Hate)
corto:  1 = 0(Non-Hate) 1(Hate)
bajo:  1 = 0(Non-Hate) 1(Hate)
atencion:  1 = 1(Non-Hate) 0(Hate)
insulta:  1 = 1(Non-Hate) 0(Hate)
reforman:  1 = 1(Non-Hate) 0(Hate)
paul:  1 = 1(Non-Hate) 0(Hate)
amor:  1 = 1(Non-Hate) 0(Hate)
humor:  1 = 1(Non-Hate) 0(Hate)
masivas:  1 = 1(Non-Hate) 0(Hate)
hoy:  6 = 5(Non-Hate) 1(Hate)
hoyo:  1 = 1(Non-Hate) 0(Hate)
quiero:  4 = 4(Non-Hate) 0(Hate)
atravesara:  1 = 0(Non-Hate) 1(Hate)
antoniaaaaaaaa:  1 = 0(Non-Hate) 1(Hate)
argento:  1 = 0(Non-Hate) 1(Hate)
pagarnos:  1 = 0(Non-Hate) 1(Hate)
ejerciendo:  1 = 0(Non-Hate) 1(Hate)
manos:  3 = 2(Non-Hate) 1(Hate)
flautas:  1 = 1(Non-Hate) 0(Hate)
britanico:  1 = 1(Non-Hate) 0(Hate)
amordaza:  1 = 1(Non-Hate) 0(Hate)
inseguridad:  1 = 0(Non-Hate) 1(Hate)
agua:  1 = 0(Non-Hate) 1(Hate)
lacandona:  1 = 1(Non-Hate) 0(Hate)
campamentos:  1 = 1(Non-Hate) 0(Hate)
colombiana:  1 = 1(Non-Hate) 0(Hate)
jordania:  1 = 1(Non-Hate) 0(Hate)
saludos:  1 = 1(Non-Hate) 0(Hate)
hashtag:  1 = 0(Non-Hate) 1(Hate)
rico:  1 = 1(Non-Hate) 0(Hate)
ensenando:  4 = 1(Non-Hate) 3(Hate)
intimidacion:  1 = 1(Non-Hate) 0(Hate)
moco:  1 = 0(Non-Hate) 1(Hate)
tirando:  1 = 0(Non-Hate) 1(Hate)
buitre:  1 = 0(Non-Hate) 1(Hate)
bebas:  2 = 0(Non-Hate) 2(Hate)
funcionaria:  1 = 1(Non-Hate) 0(Hate)
dolares:  1 = 1(Non-Hate) 0(Hate)
encontrar:  1 = 1(Non-Hate) 0(Hate)
pequenos:  1 = 0(Non-Hate) 1(Hate)
nuestrxs:  1 = 0(Non-Hate) 1(Hate)
nomas:  2 = 1(Non-Hate) 1(Hate)
pasen:  2 = 0(Non-Hate) 2(Hate)
disculparse:  1 = 0(Non-Hate) 1(Hate)
transportando:  1 = 1(Non-Hate) 0(Hate)
romperles:  1 = 1(Non-Hate) 0(Hate)
app:  1 = 1(Non-Hate) 0(Hate)
momento:  2 = 2(Non-Hate) 0(Hate)
cc:  1 = 1(Non-Hate) 0(Hate)
v:  2 = 2(Non-Hate) 0(Hate)
buscan:  1 = 1(Non-Hate) 0(Hate)
cairo:  1 = 1(Non-Hate) 0(Hate)
unico:  2 = 1(Non-Hate) 1(Hate)
guardados:  1 = 1(Non-Hate) 0(Hate)
ningun:  2 = 2(Non-Hate) 0(Hate)
donana:  1 = 1(Non-Hate) 0(Hate)
imprimen:  1 = 1(Non-Hate) 0(Hate)
agitar:  1 = 1(Non-Hate) 0(Hate)
meta:  2 = 1(Non-Hate) 1(Hate)
asquerosa:  1 = 0(Non-Hate) 1(Hate)
colectivo:  1 = 1(Non-Hate) 0(Hate)
verian:  1 = 0(Non-Hate) 1(Hate)
cama:  3 = 1(Non-Hate) 2(Hate)
caliente:  3 = 1(Non-Hate) 2(Hate)
cantando:  1 = 0(Non-Hate) 1(Hate)
urgente:  1 = 1(Non-Hate) 0(Hate)
tocara:  1 = 1(Non-Hate) 0(Hate)
pone:  1 = 1(Non-Hate) 0(Hate)
mokushiroku:  1 = 1(Non-Hate) 0(Hate)
gran:  9 = 5(Non-Hate) 4(Hate)
fc:  1 = 1(Non-Hate) 0(Hate)
ex:  1 = 1(Non-Hate) 0(Hate)
min:  1 = 1(Non-Hate) 0(Hate)
cerdo:  1 = 0(Non-Hate) 1(Hate)
celebrando:  1 = 0(Non-Hate) 1(Hate)
viejos:  2 = 2(Non-Hate) 0(Hate)
aunque:  3 = 2(Non-Hate) 1(Hate)
indocumentados:  4 = 1(Non-Hate) 3(Hate)
wikipedia:  1 = 1(Non-Hate) 0(Hate)
empalar:  1 = 1(Non-Hate) 0(Hate)
masas:  1 = 1(Non-Hate) 0(Hate)
so:  2 = 0(Non-Hate) 2(Hate)
presenten:  1 = 1(Non-Hate) 0(Hate)
consiguio:  1 = 1(Non-Hate) 0(Hate)
valor:  1 = 0(Non-Hate) 1(Hate)
castro:  2 = 0(Non-Hate) 2(Hate)
guarras:  1 = 0(Non-Hate) 1(Hate)
panten:  1 = 1(Non-Hate) 0(Hate)
bizcocho:  1 = 1(Non-Hate) 0(Hate)
explotar:  1 = 1(Non-Hate) 0(Hate)
amazon:  1 = 1(Non-Hate) 0(Hate)
idioteces:  1 = 1(Non-Hate) 0(Hate)
alpiste:  1 = 0(Non-Hate) 1(Hate)
metas:  2 = 1(Non-Hate) 1(Hate)
aproximadamente:  1 = 1(Non-Hate) 0(Hate)
propone:  1 = 0(Non-Hate) 1(Hate)
dada:  1 = 0(Non-Hate) 1(Hate)
ganar:  1 = 1(Non-Hate) 0(Hate)
callate:  92 = 40(Non-Hate) 52(Hate)
matar:  3 = 0(Non-Hate) 3(Hate)
hermano:  1 = 1(Non-Hate) 0(Hate)
ninas:  3 = 2(Non-Hate) 1(Hate)
p:  4 = 2(Non-Hate) 2(Hate)
actual:  1 = 0(Non-Hate) 1(Hate)
partidos:  1 = 0(Non-Hate) 1(Hate)
tratar:  1 = 0(Non-Hate) 1(Hate)
invasores:  1 = 0(Non-Hate) 1(Hate)
aman:  1 = 1(Non-Hate) 0(Hate)
jubilar:  1 = 0(Non-Hate) 1(Hate)
malditos:  1 = 0(Non-Hate) 1(Hate)
francisco:  1 = 0(Non-Hate) 1(Hate)
cuenta:  3 = 2(Non-Hate) 1(Hate)
estallo:  1 = 0(Non-Hate) 1(Hate)
llorar:  1 = 1(Non-Hate) 0(Hate)
feminiprogres:  1 = 0(Non-Hate) 1(Hate)
mejor:  17 = 9(Non-Hate) 8(Hate)
rodearon:  1 = 0(Non-Hate) 1(Hate)
comprando:  1 = 1(Non-Hate) 0(Hate)
guapos:  1 = 1(Non-Hate) 0(Hate)
cerdos:  1 = 1(Non-Hate) 0(Hate)
nina:  4 = 1(Non-Hate) 3(Hate)
reventado:  1 = 1(Non-Hate) 0(Hate)
colado:  1 = 1(Non-Hate) 0(Hate)
feminismo:  1 = 1(Non-Hate) 0(Hate)
cantico:  1 = 0(Non-Hate) 1(Hate)
poca:  1 = 0(Non-Hate) 1(Hate)
guero:  6 = 5(Non-Hate) 1(Hate)
falsa:  2 = 1(Non-Hate) 1(Hate)
presunto:  1 = 1(Non-Hate) 0(Hate)
dominas:  1 = 0(Non-Hate) 1(Hate)
tiempo:  2 = 1(Non-Hate) 1(Hate)
vas:  2 = 2(Non-Hate) 0(Hate)
respirar:  1 = 0(Non-Hate) 1(Hate)
espejo:  1 = 0(Non-Hate) 1(Hate)
hermoso:  1 = 1(Non-Hate) 0(Hate)
suena:  1 = 1(Non-Hate) 0(Hate)
descuidada:  1 = 0(Non-Hate) 1(Hate)
gritan:  1 = 1(Non-Hate) 0(Hate)
seba:  1 = 1(Non-Hate) 0(Hate)
publico:  4 = 3(Non-Hate) 1(Hate)
bardem:  1 = 1(Non-Hate) 0(Hate)
rad:  1 = 1(Non-Hate) 0(Hate)
conquistar:  1 = 0(Non-Hate) 1(Hate)
montar:  1 = 1(Non-Hate) 0(Hate)
cortito:  1 = 1(Non-Hate) 0(Hate)
merezca:  3 = 2(Non-Hate) 1(Hate)
sufrimiento:  1 = 0(Non-Hate) 1(Hate)
leyendo:  1 = 1(Non-Hate) 0(Hate)
mono:  2 = 2(Non-Hate) 0(Hate)
ayudar:  1 = 1(Non-Hate) 0(Hate)
creen:  1 = 0(Non-Hate) 1(Hate)
pronunciarlo:  1 = 1(Non-Hate) 0(Hate)
tribunal:  1 = 1(Non-Hate) 0(Hate)
ensenare:  1 = 1(Non-Hate) 0(Hate)
moromierda:  1 = 0(Non-Hate) 1(Hate)
expedientes:  1 = 0(Non-Hate) 1(Hate)
ladito:  1 = 0(Non-Hate) 1(Hate)
ami:  1 = 0(Non-Hate) 1(Hate)
dejan:  1 = 1(Non-Hate) 0(Hate)
don:  1 = 0(Non-Hate) 1(Hate)
traka:  1 = 1(Non-Hate) 0(Hate)
s:  1 = 0(Non-Hate) 1(Hate)
amigo:  2 = 1(Non-Hate) 1(Hate)
pervertido:  1 = 1(Non-Hate) 0(Hate)
naranjaaa:  1 = 1(Non-Hate) 0(Hate)
franchute:  1 = 1(Non-Hate) 0(Hate)
pela:  1 = 0(Non-Hate) 1(Hate)
crean:  1 = 1(Non-Hate) 0(Hate)
chingar:  1 = 0(Non-Hate) 1(Hate)
ecuador:  1 = 0(Non-Hate) 1(Hate)
piquin:  1 = 1(Non-Hate) 0(Hate)
juventus:  1 = 1(Non-Hate) 0(Hate)
visto:  2 = 1(Non-Hate) 1(Hate)
maria:  1 = 1(Non-Hate) 0(Hate)
rivalidad:  1 = 0(Non-Hate) 1(Hate)
invaden:  1 = 1(Non-Hate) 0(Hate)
asociarle:  1 = 0(Non-Hate) 1(Hate)
modas:  1 = 0(Non-Hate) 1(Hate)
iphone:  1 = 1(Non-Hate) 0(Hate)
pasas:  1 = 1(Non-Hate) 0(Hate)
planes:  2 = 2(Non-Hate) 0(Hate)
finalmente:  1 = 1(Non-Hate) 0(Hate)
clara:  1 = 0(Non-Hate) 1(Hate)
politicos:  2 = 0(Non-Hate) 2(Hate)
mujer:  16 = 5(Non-Hate) 11(Hate)
cosmeticos:  1 = 1(Non-Hate) 0(Hate)
stress:  1 = 0(Non-Hate) 1(Hate)
provida:  1 = 1(Non-Hate) 0(Hate)
joder:  1 = 1(Non-Hate) 0(Hate)
veces:  4 = 4(Non-Hate) 0(Hate)
lesionen:  1 = 0(Non-Hate) 1(Hate)
nominada:  1 = 1(Non-Hate) 0(Hate)
lacras:  1 = 0(Non-Hate) 1(Hate)
sexo:  1 = 1(Non-Hate) 0(Hate)
sindicado:  1 = 0(Non-Hate) 1(Hate)
iba:  4 = 1(Non-Hate) 3(Hate)
sueltas:  1 = 1(Non-Hate) 0(Hate)
hiciste:  2 = 0(Non-Hate) 2(Hate)
apoyan:  1 = 1(Non-Hate) 0(Hate)
llenar:  1 = 0(Non-Hate) 1(Hate)
embajadores:  1 = 1(Non-Hate) 0(Hate)
pareces:  1 = 1(Non-Hate) 0(Hate)
feliz:  3 = 3(Non-Hate) 0(Hate)
protectoras:  1 = 0(Non-Hate) 1(Hate)
pedo:  1 = 0(Non-Hate) 1(Hate)
escribirle:  1 = 1(Non-Hate) 0(Hate)
falda:  1 = 0(Non-Hate) 1(Hate)
pdn:  1 = 1(Non-Hate) 0(Hate)
negro:  1 = 0(Non-Hate) 1(Hate)
lista:  1 = 0(Non-Hate) 1(Hate)
recopilando:  1 = 0(Non-Hate) 1(Hate)
cera:  1 = 0(Non-Hate) 1(Hate)
poder:  6 = 5(Non-Hate) 1(Hate)
waffles:  1 = 1(Non-Hate) 0(Hate)
inclinados:  1 = 0(Non-Hate) 1(Hate)
poner:  2 = 1(Non-Hate) 1(Hate)
tela:  2 = 0(Non-Hate) 2(Hate)
pasa:  9 = 3(Non-Hate) 6(Hate)
oigan:  1 = 1(Non-Hate) 0(Hate)
fregadero:  1 = 0(Non-Hate) 1(Hate)
sionistas:  1 = 0(Non-Hate) 1(Hate)
album:  1 = 0(Non-Hate) 1(Hate)
paulo:  1 = 1(Non-Hate) 0(Hate)
menores:  1 = 1(Non-Hate) 0(Hate)
supuesto:  2 = 2(Non-Hate) 0(Hate)
darth:  1 = 1(Non-Hate) 0(Hate)
arrancar:  1 = 0(Non-Hate) 1(Hate)
erc:  1 = 0(Non-Hate) 1(Hate)
consentimiento:  1 = 1(Non-Hate) 0(Hate)
llevar:  1 = 1(Non-Hate) 0(Hate)
subsahariana:  1 = 0(Non-Hate) 1(Hate)
na:  2 = 0(Non-Hate) 2(Hate)
esperando:  1 = 0(Non-Hate) 1(Hate)
hijos:  6 = 5(Non-Hate) 1(Hate)
pa:  3 = 1(Non-Hate) 2(Hate)
madreeeeeeeeeee:  1 = 1(Non-Hate) 0(Hate)
salto:  1 = 0(Non-Hate) 1(Hate)
unidos:  2 = 2(Non-Hate) 0(Hate)
nuevo:  2 = 2(Non-Hate) 0(Hate)
pantalones:  1 = 0(Non-Hate) 1(Hate)
sera:  4 = 2(Non-Hate) 2(Hate)
peores:  1 = 1(Non-Hate) 0(Hate)
mismas:  1 = 0(Non-Hate) 1(Hate)
salvaron:  1 = 1(Non-Hate) 0(Hate)
juanrro:  1 = 0(Non-Hate) 1(Hate)
anoche:  2 = 1(Non-Hate) 1(Hate)
quiera:  2 = 2(Non-Hate) 0(Hate)
fa:  1 = 1(Non-Hate) 0(Hate)
clases:  1 = 1(Non-Hate) 0(Hate)
bendicion:  1 = 0(Non-Hate) 1(Hate)
modo:  1 = 1(Non-Hate) 0(Hate)
cb:  2 = 2(Non-Hate) 0(Hate)
aparte:  1 = 0(Non-Hate) 1(Hate)
tigo:  1 = 0(Non-Hate) 1(Hate)
chupa:  1 = 0(Non-Hate) 1(Hate)
ccaa:  1 = 0(Non-Hate) 1(Hate)
primer:  1 = 0(Non-Hate) 1(Hate)
fijo:  1 = 0(Non-Hate) 1(Hate)
guarro:  1 = 0(Non-Hate) 1(Hate)
hilo:  1 = 0(Non-Hate) 1(Hate)
rato:  1 = 0(Non-Hate) 1(Hate)
veni:  1 = 1(Non-Hate) 0(Hate)
nacionalizo:  1 = 1(Non-Hate) 0(Hate)
piensan:  3 = 0(Non-Hate) 3(Hate)
dale:  1 = 1(Non-Hate) 0(Hate)
ajjaja:  1 = 1(Non-Hate) 0(Hate)
colombia:  3 = 3(Non-Hate) 0(Hate)
judios:  2 = 2(Non-Hate) 0(Hate)
avivarse:  1 = 0(Non-Hate) 1(Hate)
claro:  5 = 2(Non-Hate) 3(Hate)
ensenaron:  4 = 3(Non-Hate) 1(Hate)
capaz:  1 = 0(Non-Hate) 1(Hate)
italia:  1 = 0(Non-Hate) 1(Hate)
ente:  1 = 1(Non-Hate) 0(Hate)
obviamente:  1 = 0(Non-Hate) 1(Hate)
korea:  1 = 1(Non-Hate) 0(Hate)
puchita:  1 = 0(Non-Hate) 1(Hate)
triangular:  1 = 0(Non-Hate) 1(Hate)
condena:  2 = 2(Non-Hate) 0(Hate)
habla:  3 = 1(Non-Hate) 2(Hate)
yisus:  1 = 1(Non-Hate) 0(Hate)
mayores:  3 = 1(Non-Hate) 2(Hate)
leones:  1 = 0(Non-Hate) 1(Hate)
charlamos:  1 = 0(Non-Hate) 1(Hate)
trabajen:  1 = 0(Non-Hate) 1(Hate)
entere:  1 = 0(Non-Hate) 1(Hate)
actos:  1 = 0(Non-Hate) 1(Hate)
triste:  1 = 0(Non-Hate) 1(Hate)
gaitero:  1 = 1(Non-Hate) 0(Hate)
saudita:  1 = 0(Non-Hate) 1(Hate)
disfruten:  1 = 1(Non-Hate) 0(Hate)
hace:  14 = 5(Non-Hate) 9(Hate)
darnos:  1 = 1(Non-Hate) 0(Hate)
reggaeton:  1 = 1(Non-Hate) 0(Hate)
decente:  1 = 0(Non-Hate) 1(Hate)
cago:  1 = 0(Non-Hate) 1(Hate)
colau:  1 = 0(Non-Hate) 1(Hate)
grandisimo:  2 = 2(Non-Hate) 0(Hate)
rodolfo:  1 = 0(Non-Hate) 1(Hate)
naturaleza:  1 = 1(Non-Hate) 0(Hate)
constitucion:  1 = 1(Non-Hate) 0(Hate)
hermanastra:  1 = 1(Non-Hate) 0(Hate)
higiene:  1 = 1(Non-Hate) 0(Hate)
chaval:  1 = 0(Non-Hate) 1(Hate)
renzo:  1 = 1(Non-Hate) 0(Hate)
panza:  1 = 1(Non-Hate) 0(Hate)
frijolera:  1 = 1(Non-Hate) 0(Hate)
forma:  3 = 1(Non-Hate) 2(Hate)
dia:  12 = 4(Non-Hate) 8(Hate)
interes:  1 = 0(Non-Hate) 1(Hate)
nig:  1 = 1(Non-Hate) 0(Hate)
r:  1 = 0(Non-Hate) 1(Hate)
supervivencia:  1 = 1(Non-Hate) 0(Hate)
contigo:  3 = 1(Non-Hate) 2(Hate)
tanta:  2 = 1(Non-Hate) 1(Hate)
personajes:  1 = 0(Non-Hate) 1(Hate)
novio:  2 = 1(Non-Hate) 1(Hate)
bolas:  1 = 0(Non-Hate) 1(Hate)
psicologico:  1 = 0(Non-Hate) 1(Hate)
ligera:  1 = 1(Non-Hate) 0(Hate)
atentado:  2 = 1(Non-Hate) 1(Hate)
argentina:  2 = 0(Non-Hate) 2(Hate)
pasando:  1 = 1(Non-Hate) 0(Hate)
ladrones:  1 = 0(Non-Hate) 1(Hate)
picada:  1 = 1(Non-Hate) 0(Hate)
islam:  2 = 1(Non-Hate) 1(Hate)
malparido:  1 = 1(Non-Hate) 0(Hate)
inmigrantes:  17 = 7(Non-Hate) 10(Hate)
pedooooooooo:  1 = 0(Non-Hate) 1(Hate)
angelico:  1 = 1(Non-Hate) 0(Hate)
volvera:  1 = 0(Non-Hate) 1(Hate)
aullando:  1 = 1(Non-Hate) 0(Hate)
injusticia:  1 = 1(Non-Hate) 0(Hate)
jijijiji:  1 = 0(Non-Hate) 1(Hate)
existe:  1 = 1(Non-Hate) 0(Hate)
melilla:  2 = 2(Non-Hate) 0(Hate)
tetela:  1 = 0(Non-Hate) 1(Hate)
j:  3 = 1(Non-Hate) 2(Hate)
ecko:  1 = 1(Non-Hate) 0(Hate)
leyenda:  2 = 2(Non-Hate) 0(Hate)
quilombo:  1 = 0(Non-Hate) 1(Hate)
animales:  1 = 0(Non-Hate) 1(Hate)
goteo:  1 = 1(Non-Hate) 0(Hate)
pagas:  1 = 1(Non-Hate) 0(Hate)
estupideces:  1 = 1(Non-Hate) 0(Hate)
invasion:  2 = 0(Non-Hate) 2(Hate)
significa:  1 = 1(Non-Hate) 0(Hate)
siglos:  1 = 1(Non-Hate) 0(Hate)
boca:  8 = 7(Non-Hate) 1(Hate)
ruedas:  1 = 0(Non-Hate) 1(Hate)
ruben:  2 = 0(Non-Hate) 2(Hate)
izquierdas:  1 = 1(Non-Hate) 0(Hate)
revolcada:  1 = 1(Non-Hate) 0(Hate)
nazi:  2 = 1(Non-Hate) 1(Hate)
muchas:  3 = 2(Non-Hate) 1(Hate)
leche:  3 = 0(Non-Hate) 3(Hate)
gano:  1 = 1(Non-Hate) 0(Hate)
empleador:  1 = 1(Non-Hate) 0(Hate)
penetrarte:  1 = 0(Non-Hate) 1(Hate)
pedir:  2 = 1(Non-Hate) 1(Hate)
cabello:  1 = 1(Non-Hate) 0(Hate)
pelotuda:  2 = 1(Non-Hate) 1(Hate)
mercancias:  1 = 0(Non-Hate) 1(Hate)
verguenza:  6 = 4(Non-Hate) 2(Hate)
ridiculas:  2 = 2(Non-Hate) 0(Hate)
maltrato:  4 = 3(Non-Hate) 1(Hate)
uuuuo:  2 = 0(Non-Hate) 2(Hate)
google:  2 = 2(Non-Hate) 0(Hate)
criminal:  2 = 2(Non-Hate) 0(Hate)
sanchez:  3 = 1(Non-Hate) 2(Hate)
absorbiendo:  1 = 0(Non-Hate) 1(Hate)
llena:  1 = 0(Non-Hate) 1(Hate)
by:  1 = 1(Non-Hate) 0(Hate)
sone:  1 = 1(Non-Hate) 0(Hate)
provocacion:  1 = 1(Non-Hate) 0(Hate)
moncloa:  1 = 0(Non-Hate) 1(Hate)
respeto:  3 = 3(Non-Hate) 0(Hate)
mejores:  1 = 1(Non-Hate) 0(Hate)
ilegales:  3 = 0(Non-Hate) 3(Hate)
familia:  1 = 1(Non-Hate) 0(Hate)
cuya:  1 = 0(Non-Hate) 1(Hate)
vivo:  2 = 1(Non-Hate) 1(Hate)
acabaron:  1 = 1(Non-Hate) 0(Hate)
echarte:  1 = 0(Non-Hate) 1(Hate)
apetece:  1 = 1(Non-Hate) 0(Hate)
aprender:  3 = 1(Non-Hate) 2(Hate)
evidentemente:  1 = 0(Non-Hate) 1(Hate)
eternidad:  1 = 1(Non-Hate) 0(Hate)
agujero:  1 = 1(Non-Hate) 0(Hate)
plaza:  1 = 1(Non-Hate) 0(Hate)
unica:  2 = 1(Non-Hate) 1(Hate)
tetona:  1 = 0(Non-Hate) 1(Hate)
miles:  2 = 1(Non-Hate) 1(Hate)
finn:  1 = 1(Non-Hate) 0(Hate)
cena:  1 = 1(Non-Hate) 0(Hate)
intentan:  1 = 0(Non-Hate) 1(Hate)
vacias:  1 = 0(Non-Hate) 1(Hate)
deberias:  1 = 0(Non-Hate) 1(Hate)
inteligencia:  1 = 1(Non-Hate) 0(Hate)
habe:  1 = 0(Non-Hate) 1(Hate)
ensenar:  16 = 13(Non-Hate) 3(Hate)
exigir:  2 = 1(Non-Hate) 1(Hate)
puesto:  1 = 0(Non-Hate) 1(Hate)
buscas:  1 = 1(Non-Hate) 0(Hate)
pensad:  1 = 0(Non-Hate) 1(Hate)
adaptas:  1 = 1(Non-Hate) 0(Hate)
ta:  2 = 2(Non-Hate) 0(Hate)
perez:  1 = 1(Non-Hate) 0(Hate)
mafias:  1 = 0(Non-Hate) 1(Hate)
damos:  1 = 0(Non-Hate) 1(Hate)
espadachin:  1 = 1(Non-Hate) 0(Hate)
amarena:  1 = 1(Non-Hate) 0(Hate)
amas:  1 = 0(Non-Hate) 1(Hate)
guitarrista:  1 = 1(Non-Hate) 0(Hate)
mental:  2 = 2(Non-Hate) 0(Hate)
sr:  1 = 1(Non-Hate) 0(Hate)
ejercito:  1 = 1(Non-Hate) 0(Hate)
segunda:  1 = 1(Non-Hate) 0(Hate)
panamenos:  1 = 0(Non-Hate) 1(Hate)
sube:  1 = 0(Non-Hate) 1(Hate)
perra:  67 = 24(Non-Hate) 43(Hate)
primito:  1 = 1(Non-Hate) 0(Hate)
machista:  2 = 1(Non-Hate) 1(Hate)
bitch:  1 = 0(Non-Hate) 1(Hate)
ana:  3 = 1(Non-Hate) 2(Hate)
musulmanes:  5 = 1(Non-Hate) 4(Hate)
quitamos:  1 = 0(Non-Hate) 1(Hate)
hacelo:  1 = 1(Non-Hate) 0(Hate)
pensiones:  3 = 0(Non-Hate) 3(Hate)
semita:  1 = 0(Non-Hate) 1(Hate)
grita:  1 = 1(Non-Hate) 0(Hate)
colaboradora:  1 = 1(Non-Hate) 0(Hate)
pera:  1 = 0(Non-Hate) 1(Hate)
quedar:  1 = 1(Non-Hate) 0(Hate)
llorando:  1 = 1(Non-Hate) 0(Hate)
cagado:  3 = 1(Non-Hate) 2(Hate)
morenas:  1 = 1(Non-Hate) 0(Hate)
seguiras:  1 = 1(Non-Hate) 0(Hate)
estes:  1 = 1(Non-Hate) 0(Hate)
apoyais:  1 = 1(Non-Hate) 0(Hate)
arabe:  29 = 25(Non-Hate) 4(Hate)
indigno:  1 = 1(Non-Hate) 0(Hate)
maduro:  3 = 2(Non-Hate) 1(Hate)
pagan:  1 = 0(Non-Hate) 1(Hate)
reconocido:  1 = 1(Non-Hate) 0(Hate)
baile:  2 = 2(Non-Hate) 0(Hate)
mateo:  2 = 2(Non-Hate) 0(Hate)
gordas:  1 = 0(Non-Hate) 1(Hate)
pies:  1 = 0(Non-Hate) 1(Hate)
pena:  3 = 1(Non-Hate) 2(Hate)
disney:  1 = 1(Non-Hate) 0(Hate)
facil:  2 = 0(Non-Hate) 2(Hate)
enviado:  1 = 1(Non-Hate) 0(Hate)
creerselas:  1 = 1(Non-Hate) 0(Hate)
retando:  1 = 1(Non-Hate) 0(Hate)
conoce:  2 = 1(Non-Hate) 1(Hate)
falte:  1 = 0(Non-Hate) 1(Hate)
fraude:  1 = 1(Non-Hate) 0(Hate)
puntos:  2 = 2(Non-Hate) 0(Hate)
padrino:  1 = 1(Non-Hate) 0(Hate)
conector:  1 = 1(Non-Hate) 0(Hate)
frustrante:  1 = 1(Non-Hate) 0(Hate)
llamaron:  1 = 0(Non-Hate) 1(Hate)
ala:  1 = 0(Non-Hate) 1(Hate)
antecedentes:  1 = 0(Non-Hate) 1(Hate)
drama:  1 = 1(Non-Hate) 0(Hate)
rosario:  1 = 1(Non-Hate) 0(Hate)
mexicano:  2 = 0(Non-Hate) 2(Hate)
lastima:  1 = 0(Non-Hate) 1(Hate)
dejes:  1 = 0(Non-Hate) 1(Hate)
decenas:  1 = 1(Non-Hate) 0(Hate)
muerto:  1 = 1(Non-Hate) 0(Hate)
diego:  1 = 1(Non-Hate) 0(Hate)
sudacas:  3 = 0(Non-Hate) 3(Hate)
onda:  1 = 1(Non-Hate) 0(Hate)
dicese:  1 = 1(Non-Hate) 0(Hate)
acabara:  1 = 0(Non-Hate) 1(Hate)
emiliano:  1 = 1(Non-Hate) 0(Hate)
gitanos:  1 = 0(Non-Hate) 1(Hate)
cono:  13 = 12(Non-Hate) 1(Hate)
cogio:  1 = 0(Non-Hate) 1(Hate)
igualmente:  1 = 0(Non-Hate) 1(Hate)
paso:  7 = 3(Non-Hate) 4(Hate)
aranburu:  1 = 1(Non-Hate) 0(Hate)
trabajo:  3 = 1(Non-Hate) 2(Hate)
arrepientas:  1 = 1(Non-Hate) 0(Hate)
comete:  1 = 0(Non-Hate) 1(Hate)
asique:  1 = 0(Non-Hate) 1(Hate)
pario:  1 = 1(Non-Hate) 0(Hate)
respuesta:  1 = 1(Non-Hate) 0(Hate)
osea:  1 = 0(Non-Hate) 1(Hate)
ojos:  1 = 1(Non-Hate) 0(Hate)
jugando:  1 = 1(Non-Hate) 0(Hate)
escoria:  12 = 11(Non-Hate) 1(Hate)
horas:  1 = 1(Non-Hate) 0(Hate)
acaban:  1 = 0(Non-Hate) 1(Hate)
entienda:  1 = 0(Non-Hate) 1(Hate)
compensatoria:  1 = 1(Non-Hate) 0(Hate)
playa:  1 = 1(Non-Hate) 0(Hate)
mames:  2 = 0(Non-Hate) 2(Hate)
urss:  1 = 0(Non-Hate) 1(Hate)
garganta:  1 = 0(Non-Hate) 1(Hate)
maldita:  7 = 2(Non-Hate) 5(Hate)
permitir:  3 = 1(Non-Hate) 2(Hate)
abren:  1 = 0(Non-Hate) 1(Hate)
pide:  1 = 0(Non-Hate) 1(Hate)
critica:  1 = 0(Non-Hate) 1(Hate)
siguenos:  1 = 0(Non-Hate) 1(Hate)
arreglo:  1 = 1(Non-Hate) 0(Hate)
olvidas:  2 = 1(Non-Hate) 1(Hate)
cucaracha:  1 = 0(Non-Hate) 1(Hate)
venderte:  1 = 0(Non-Hate) 1(Hate)
comparable:  1 = 1(Non-Hate) 0(Hate)
andabas:  1 = 0(Non-Hate) 1(Hate)
club:  1 = 1(Non-Hate) 0(Hate)
famosa:  1 = 0(Non-Hate) 1(Hate)
perfumes:  1 = 0(Non-Hate) 1(Hate)
gorda:  3 = 0(Non-Hate) 3(Hate)
abro:  1 = 0(Non-Hate) 1(Hate)
libro:  2 = 2(Non-Hate) 0(Hate)
titular:  2 = 2(Non-Hate) 0(Hate)
toco:  1 = 1(Non-Hate) 0(Hate)
benzema:  1 = 1(Non-Hate) 0(Hate)
jodido:  1 = 0(Non-Hate) 1(Hate)
gobernantes:  1 = 0(Non-Hate) 1(Hate)
vida:  11 = 7(Non-Hate) 4(Hate)
mentiras:  1 = 0(Non-Hate) 1(Hate)
acaba:  2 = 1(Non-Hate) 1(Hate)
posiblemente:  1 = 0(Non-Hate) 1(Hate)
queda:  4 = 1(Non-Hate) 3(Hate)
internacional:  1 = 1(Non-Hate) 0(Hate)
andando:  1 = 0(Non-Hate) 1(Hate)
programa:  2 = 0(Non-Hate) 2(Hate)
conversaciones:  1 = 1(Non-Hate) 0(Hate)
falto:  1 = 1(Non-Hate) 0(Hate)
rata:  3 = 2(Non-Hate) 1(Hate)
primero:  2 = 2(Non-Hate) 0(Hate)
carmena:  1 = 1(Non-Hate) 0(Hate)
ahre:  2 = 2(Non-Hate) 0(Hate)
busque:  1 = 0(Non-Hate) 1(Hate)
complice:  1 = 1(Non-Hate) 0(Hate)
extranas:  1 = 0(Non-Hate) 1(Hate)
coco:  1 = 1(Non-Hate) 0(Hate)
inmigrante:  2 = 0(Non-Hate) 2(Hate)
estudio:  1 = 0(Non-Hate) 1(Hate)
ensenarme:  3 = 3(Non-Hate) 0(Hate)
vivis:  1 = 0(Non-Hate) 1(Hate)
supuestos:  1 = 1(Non-Hate) 0(Hate)
mejora:  1 = 1(Non-Hate) 0(Hate)
remake:  2 = 2(Non-Hate) 0(Hate)
abuela:  1 = 1(Non-Hate) 0(Hate)
votan:  1 = 0(Non-Hate) 1(Hate)
rocco:  1 = 1(Non-Hate) 0(Hate)
camy:  1 = 0(Non-Hate) 1(Hate)
media:  2 = 1(Non-Hate) 1(Hate)
viene:  3 = 2(Non-Hate) 1(Hate)
pagaron:  1 = 1(Non-Hate) 0(Hate)
bastante:  1 = 0(Non-Hate) 1(Hate)
mente:  2 = 2(Non-Hate) 0(Hate)
inmigracion:  8 = 5(Non-Hate) 3(Hate)
cucha:  1 = 0(Non-Hate) 1(Hate)
saber:  3 = 3(Non-Hate) 0(Hate)
europeos:  1 = 0(Non-Hate) 1(Hate)
sufriendo:  1 = 0(Non-Hate) 1(Hate)
albert:  1 = 0(Non-Hate) 1(Hate)
buscarlas:  1 = 0(Non-Hate) 1(Hate)
mexicana:  1 = 0(Non-Hate) 1(Hate)
hables:  1 = 1(Non-Hate) 0(Hate)
amiga:  2 = 1(Non-Hate) 1(Hate)
musulmono:  1 = 0(Non-Hate) 1(Hate)
comera:  1 = 0(Non-Hate) 1(Hate)
claramente:  1 = 0(Non-Hate) 1(Hate)
cup:  1 = 0(Non-Hate) 1(Hate)
explicaciones:  1 = 0(Non-Hate) 1(Hate)
pedazo:  2 = 2(Non-Hate) 0(Hate)
comportamiento:  1 = 1(Non-Hate) 0(Hate)
black:  1 = 0(Non-Hate) 1(Hate)
cielo:  3 = 2(Non-Hate) 1(Hate)
paguitas:  1 = 0(Non-Hate) 1(Hate)
bailando:  1 = 1(Non-Hate) 0(Hate)
pacificamente:  1 = 0(Non-Hate) 1(Hate)
izmierda:  1 = 0(Non-Hate) 1(Hate)
encargo:  1 = 1(Non-Hate) 0(Hate)
basura:  9 = 6(Non-Hate) 3(Hate)
imaginas:  1 = 1(Non-Hate) 0(Hate)
tendria:  1 = 1(Non-Hate) 0(Hate)
informacion:  1 = 1(Non-Hate) 0(Hate)
cierre:  1 = 1(Non-Hate) 0(Hate)
religion:  1 = 0(Non-Hate) 1(Hate)
babosos:  2 = 2(Non-Hate) 0(Hate)
revolucion:  1 = 1(Non-Hate) 0(Hate)
tocoron:  1 = 0(Non-Hate) 1(Hate)
mati:  1 = 1(Non-Hate) 0(Hate)
volver:  1 = 0(Non-Hate) 1(Hate)
muertetu:  1 = 0(Non-Hate) 1(Hate)
supongo:  1 = 0(Non-Hate) 1(Hate)
rae:  1 = 1(Non-Hate) 0(Hate)
lesbi:  1 = 0(Non-Hate) 1(Hate)
deseandome:  1 = 1(Non-Hate) 0(Hate)
vacaciones:  2 = 0(Non-Hate) 2(Hate)
loco:  1 = 1(Non-Hate) 0(Hate)
aceptable:  1 = 0(Non-Hate) 1(Hate)
pequena:  1 = 1(Non-Hate) 0(Hate)
tl:  1 = 1(Non-Hate) 0(Hate)
agreden:  1 = 0(Non-Hate) 1(Hate)
papis:  1 = 0(Non-Hate) 1(Hate)
calafate:  1 = 1(Non-Hate) 0(Hate)
celebrarlo:  1 = 1(Non-Hate) 0(Hate)
ve:  3 = 1(Non-Hate) 2(Hate)
usar:  1 = 0(Non-Hate) 1(Hate)
teta:  1 = 1(Non-Hate) 0(Hate)
dirige:  1 = 1(Non-Hate) 0(Hate)
decir:  9 = 6(Non-Hate) 3(Hate)
palos:  2 = 1(Non-Hate) 1(Hate)
nacionales:  1 = 0(Non-Hate) 1(Hate)
pagues:  1 = 0(Non-Hate) 1(Hate)
confio:  1 = 1(Non-Hate) 0(Hate)
cosas:  6 = 3(Non-Hate) 3(Hate)
dejas:  1 = 1(Non-Hate) 0(Hate)
peter:  1 = 0(Non-Hate) 1(Hate)
tez:  1 = 1(Non-Hate) 0(Hate)
juzgado:  1 = 0(Non-Hate) 1(Hate)
usan:  1 = 0(Non-Hate) 1(Hate)
defender:  2 = 0(Non-Hate) 2(Hate)
pagaran:  1 = 1(Non-Hate) 0(Hate)
referencia:  1 = 0(Non-Hate) 1(Hate)
lejos:  1 = 0(Non-Hate) 1(Hate)
pico:  1 = 0(Non-Hate) 1(Hate)
ara:  1 = 1(Non-Hate) 0(Hate)
pondreis:  1 = 0(Non-Hate) 1(Hate)
ayer:  2 = 0(Non-Hate) 2(Hate)
davila:  1 = 1(Non-Hate) 0(Hate)
decia:  2 = 1(Non-Hate) 1(Hate)
vil:  1 = 1(Non-Hate) 0(Hate)
estudiar:  1 = 0(Non-Hate) 1(Hate)
ganamos:  1 = 1(Non-Hate) 0(Hate)
africanos:  5 = 1(Non-Hate) 4(Hate)
chinos:  2 = 0(Non-Hate) 2(Hate)
tablon:  1 = 1(Non-Hate) 0(Hate)
hacen:  1 = 1(Non-Hate) 0(Hate)
brutalmente:  1 = 0(Non-Hate) 1(Hate)
ministerio:  1 = 1(Non-Hate) 0(Hate)
persona:  4 = 2(Non-Hate) 2(Hate)
carne:  3 = 2(Non-Hate) 1(Hate)
haciendo:  1 = 1(Non-Hate) 0(Hate)
florencia:  1 = 1(Non-Hate) 0(Hate)
t:  1 = 0(Non-Hate) 1(Hate)
follarte:  1 = 1(Non-Hate) 0(Hate)
golpistas:  1 = 1(Non-Hate) 0(Hate)
infarto:  1 = 0(Non-Hate) 1(Hate)
play:  1 = 1(Non-Hate) 0(Hate)
arrogante:  1 = 0(Non-Hate) 1(Hate)
barrera:  1 = 1(Non-Hate) 0(Hate)
voltearte:  1 = 0(Non-Hate) 1(Hate)
posona:  1 = 0(Non-Hate) 1(Hate)
vayas:  1 = 0(Non-Hate) 1(Hate)
omegle:  1 = 1(Non-Hate) 0(Hate)
vota:  2 = 0(Non-Hate) 2(Hate)
pais:  17 = 1(Non-Hate) 16(Hate)
poquito:  2 = 2(Non-Hate) 0(Hate)
diferencia:  1 = 0(Non-Hate) 1(Hate)
reuniendo:  1 = 1(Non-Hate) 0(Hate)
chingada:  1 = 0(Non-Hate) 1(Hate)
jiditi:  1 = 0(Non-Hate) 1(Hate)
contado:  1 = 1(Non-Hate) 0(Hate)
g:  1 = 0(Non-Hate) 1(Hate)
mando:  1 = 1(Non-Hate) 0(Hate)
hablen:  1 = 1(Non-Hate) 0(Hate)
vendido:  1 = 1(Non-Hate) 0(Hate)
digo:  3 = 3(Non-Hate) 0(Hate)
benito:  1 = 1(Non-Hate) 0(Hate)
sentir:  1 = 1(Non-Hate) 0(Hate)
limites:  2 = 1(Non-Hate) 1(Hate)
pie:  2 = 0(Non-Hate) 2(Hate)
escriben:  1 = 1(Non-Hate) 0(Hate)
arabia:  2 = 0(Non-Hate) 2(Hate)
otero:  1 = 1(Non-Hate) 0(Hate)
cumple:  2 = 2(Non-Hate) 0(Hate)
cn:  1 = 0(Non-Hate) 1(Hate)
aparecias:  1 = 0(Non-Hate) 1(Hate)
lucha:  1 = 1(Non-Hate) 0(Hate)
turista:  2 = 0(Non-Hate) 2(Hate)
abrazarme:  1 = 1(Non-Hate) 0(Hate)
pega:  1 = 0(Non-Hate) 1(Hate)
mire:  1 = 0(Non-Hate) 1(Hate)
vengas:  1 = 0(Non-Hate) 1(Hate)
perrraaaaaaaaaa:  1 = 1(Non-Hate) 0(Hate)
atender:  1 = 0(Non-Hate) 1(Hate)
apropiaran:  1 = 0(Non-Hate) 1(Hate)
super:  3 = 1(Non-Hate) 2(Hate)
delgada:  1 = 0(Non-Hate) 1(Hate)
bruselas:  1 = 1(Non-Hate) 0(Hate)
hecha:  1 = 1(Non-Hate) 0(Hate)
obliga:  1 = 0(Non-Hate) 1(Hate)
new:  1 = 0(Non-Hate) 1(Hate)
estrujan:  1 = 1(Non-Hate) 0(Hate)
idiota:  3 = 2(Non-Hate) 1(Hate)
lengua:  1 = 0(Non-Hate) 1(Hate)
fanaticos:  1 = 0(Non-Hate) 1(Hate)
rp:  1 = 0(Non-Hate) 1(Hate)
dracula:  1 = 1(Non-Hate) 0(Hate)
judicial:  1 = 1(Non-Hate) 0(Hate)
caguen:  2 = 2(Non-Hate) 0(Hate)
coronado:  1 = 1(Non-Hate) 0(Hate)
paola:  2 = 0(Non-Hate) 2(Hate)
voz:  3 = 3(Non-Hate) 0(Hate)
leeiste:  1 = 0(Non-Hate) 1(Hate)
venezolana:  1 = 1(Non-Hate) 0(Hate)
cristiano:  1 = 1(Non-Hate) 0(Hate)
soplido:  1 = 0(Non-Hate) 1(Hate)
sangre:  1 = 1(Non-Hate) 0(Hate)
retorno:  1 = 1(Non-Hate) 0(Hate)
hija:  9 = 2(Non-Hate) 7(Hate)
jodia:  1 = 0(Non-Hate) 1(Hate)
necesarias:  2 = 1(Non-Hate) 1(Hate)
vignaaaaaaaa:  1 = 1(Non-Hate) 0(Hate)
sanidad:  2 = 0(Non-Hate) 2(Hate)
laura:  2 = 0(Non-Hate) 2(Hate)
colombianos:  1 = 0(Non-Hate) 1(Hate)
walter:  1 = 1(Non-Hate) 0(Hate)
haria:  1 = 0(Non-Hate) 1(Hate)
digales:  1 = 1(Non-Hate) 0(Hate)
tata:  1 = 1(Non-Hate) 0(Hate)
granel:  1 = 0(Non-Hate) 1(Hate)
ola:  1 = 0(Non-Hate) 1(Hate)
evento:  1 = 1(Non-Hate) 0(Hate)
bomboncitocaramel:  1 = 1(Non-Hate) 0(Hate)
respeten:  1 = 1(Non-Hate) 0(Hate)
delicafob:  1 = 1(Non-Hate) 0(Hate)
cualquiera:  1 = 0(Non-Hate) 1(Hate)
mezclas:  1 = 0(Non-Hate) 1(Hate)
zona:  1 = 1(Non-Hate) 0(Hate)
respeta:  1 = 1(Non-Hate) 0(Hate)
obligadas:  1 = 1(Non-Hate) 0(Hate)
pareja:  1 = 1(Non-Hate) 0(Hate)
banda:  1 = 0(Non-Hate) 1(Hate)
tarados:  1 = 1(Non-Hate) 0(Hate)
colecta:  1 = 1(Non-Hate) 0(Hate)
descontrola:  1 = 1(Non-Hate) 0(Hate)
veinticuatro:  1 = 1(Non-Hate) 0(Hate)
viva:  2 = 1(Non-Hate) 1(Hate)
redundante:  1 = 0(Non-Hate) 1(Hate)
joden:  1 = 0(Non-Hate) 1(Hate)
respetan:  1 = 1(Non-Hate) 0(Hate)
potencial:  1 = 1(Non-Hate) 0(Hate)
resentido:  1 = 0(Non-Hate) 1(Hate)
debe:  8 = 5(Non-Hate) 3(Hate)
propia:  1 = 1(Non-Hate) 0(Hate)
sonriente:  1 = 0(Non-Hate) 1(Hate)
culpable:  5 = 3(Non-Hate) 2(Hate)
enserio:  1 = 1(Non-Hate) 0(Hate)
enfrijoladas:  1 = 1(Non-Hate) 0(Hate)
arrepentida:  1 = 0(Non-Hate) 1(Hate)
tlf:  1 = 0(Non-Hate) 1(Hate)
visita:  2 = 1(Non-Hate) 1(Hate)
acosadas:  1 = 1(Non-Hate) 0(Hate)
merece:  1 = 0(Non-Hate) 1(Hate)
directamente:  1 = 1(Non-Hate) 0(Hate)
vaneeeee:  1 = 1(Non-Hate) 0(Hate)
motivos:  1 = 1(Non-Hate) 0(Hate)
ayuda:  3 = 1(Non-Hate) 2(Hate)
pienses:  1 = 1(Non-Hate) 0(Hate)
algun:  4 = 4(Non-Hate) 0(Hate)
moromierdas:  2 = 0(Non-Hate) 2(Hate)
gay:  1 = 1(Non-Hate) 0(Hate)
madrid:  3 = 1(Non-Hate) 2(Hate)
partio:  1 = 1(Non-Hate) 0(Hate)
dijo:  4 = 3(Non-Hate) 1(Hate)
guangas:  1 = 1(Non-Hate) 0(Hate)
cuello:  1 = 1(Non-Hate) 0(Hate)
abandona:  1 = 0(Non-Hate) 1(Hate)
acabo:  1 = 1(Non-Hate) 0(Hate)
masiva:  1 = 0(Non-Hate) 1(Hate)
bebemos:  1 = 0(Non-Hate) 1(Hate)
tambien:  7 = 2(Non-Hate) 5(Hate)
acrediten:  1 = 0(Non-Hate) 1(Hate)
actualiza:  1 = 1(Non-Hate) 0(Hate)
pastor:  1 = 1(Non-Hate) 0(Hate)
escuchar:  2 = 2(Non-Hate) 0(Hate)
recomiendo:  2 = 2(Non-Hate) 0(Hate)
dinero:  4 = 2(Non-Hate) 2(Hate)
presentar:  1 = 0(Non-Hate) 1(Hate)
tolerar:  1 = 0(Non-Hate) 1(Hate)
plan:  1 = 1(Non-Hate) 0(Hate)
asco:  5 = 3(Non-Hate) 2(Hate)
comprar:  1 = 0(Non-Hate) 1(Hate)
necesito:  2 = 2(Non-Hate) 0(Hate)
satisface:  1 = 1(Non-Hate) 0(Hate)
calzones:  1 = 0(Non-Hate) 1(Hate)
luciendo:  1 = 0(Non-Hate) 1(Hate)
publicaciones:  1 = 1(Non-Hate) 0(Hate)
anormales:  1 = 1(Non-Hate) 0(Hate)
bicth:  1 = 0(Non-Hate) 1(Hate)
real:  2 = 2(Non-Hate) 0(Hate)
salido:  1 = 1(Non-Hate) 0(Hate)
llamada:  2 = 0(Non-Hate) 2(Hate)
chica:  5 = 3(Non-Hate) 2(Hate)
petardos:  1 = 1(Non-Hate) 0(Hate)
menu:  1 = 1(Non-Hate) 0(Hate)
hagais:  1 = 1(Non-Hate) 0(Hate)
mudera:  1 = 1(Non-Hate) 0(Hate)
fines:  1 = 1(Non-Hate) 0(Hate)
velasco:  1 = 1(Non-Hate) 0(Hate)
ocupan:  1 = 0(Non-Hate) 1(Hate)
cero:  1 = 0(Non-Hate) 1(Hate)
culia:  2 = 0(Non-Hate) 2(Hate)
importe:  1 = 0(Non-Hate) 1(Hate)
hermana:  1 = 0(Non-Hate) 1(Hate)
merecias:  2 = 0(Non-Hate) 2(Hate)
convenio:  2 = 2(Non-Hate) 0(Hate)
vagos:  1 = 0(Non-Hate) 1(Hate)
ponga:  1 = 1(Non-Hate) 0(Hate)
criminalizar:  1 = 0(Non-Hate) 1(Hate)
golpes:  1 = 1(Non-Hate) 0(Hate)
producen:  1 = 1(Non-Hate) 0(Hate)
encantado:  1 = 0(Non-Hate) 1(Hate)
pasame:  1 = 0(Non-Hate) 1(Hate)
israel:  1 = 1(Non-Hate) 0(Hate)
agregado:  1 = 0(Non-Hate) 1(Hate)
veia:  1 = 0(Non-Hate) 1(Hate)
padecen:  1 = 1(Non-Hate) 0(Hate)
desesperacion:  1 = 1(Non-Hate) 0(Hate)
franquicia:  1 = 1(Non-Hate) 0(Hate)
ofrecida:  1 = 0(Non-Hate) 1(Hate)
macabra:  1 = 1(Non-Hate) 0(Hate)
final:  1 = 1(Non-Hate) 0(Hate)
copy:  1 = 1(Non-Hate) 0(Hate)
agenda:  2 = 2(Non-Hate) 0(Hate)
senalan:  1 = 1(Non-Hate) 0(Hate)
pregunto:  3 = 3(Non-Hate) 0(Hate)
crisis:  2 = 1(Non-Hate) 1(Hate)
queja:  1 = 0(Non-Hate) 1(Hate)
meter:  2 = 1(Non-Hate) 1(Hate)
salida:  2 = 2(Non-Hate) 0(Hate)
temprano:  1 = 1(Non-Hate) 0(Hate)
realizacion:  1 = 1(Non-Hate) 0(Hate)
rechazados:  1 = 1(Non-Hate) 0(Hate)
comido:  2 = 2(Non-Hate) 0(Hate)
secuestro:  1 = 1(Non-Hate) 0(Hate)
delante:  1 = 0(Non-Hate) 1(Hate)
puedes:  2 = 0(Non-Hate) 2(Hate)
hijx:  1 = 1(Non-Hate) 0(Hate)
machote:  1 = 0(Non-Hate) 1(Hate)
aaaah:  1 = 1(Non-Hate) 0(Hate)
chavez:  1 = 0(Non-Hate) 1(Hate)
medio:  2 = 1(Non-Hate) 1(Hate)
clavado:  1 = 1(Non-Hate) 0(Hate)
levanta:  1 = 0(Non-Hate) 1(Hate)
diferentes:  1 = 1(Non-Hate) 0(Hate)
pases:  1 = 1(Non-Hate) 0(Hate)
dejar:  3 = 1(Non-Hate) 2(Hate)
escudo:  1 = 1(Non-Hate) 0(Hate)
habituales:  1 = 0(Non-Hate) 1(Hate)
igual:  8 = 5(Non-Hate) 3(Hate)
dije:  1 = 0(Non-Hate) 1(Hate)
parte:  5 = 4(Non-Hate) 1(Hate)
piedras:  1 = 1(Non-Hate) 0(Hate)
santos:  1 = 1(Non-Hate) 0(Hate)
belleza:  1 = 1(Non-Hate) 0(Hate)
hicieron:  2 = 2(Non-Hate) 0(Hate)
sola:  1 = 1(Non-Hate) 0(Hate)
atenderemos:  1 = 1(Non-Hate) 0(Hate)
nino:  2 = 1(Non-Hate) 1(Hate)
violenta:  1 = 0(Non-Hate) 1(Hate)
problema:  1 = 1(Non-Hate) 0(Hate)
vergazo:  1 = 1(Non-Hate) 0(Hate)
pandilla:  1 = 0(Non-Hate) 1(Hate)
increibles:  1 = 1(Non-Hate) 0(Hate)
frances:  1 = 1(Non-Hate) 0(Hate)
abogados:  1 = 0(Non-Hate) 1(Hate)
asuntos:  1 = 1(Non-Hate) 0(Hate)
m:  4 = 3(Non-Hate) 1(Hate)
subliminal:  1 = 0(Non-Hate) 1(Hate)
agustin:  1 = 1(Non-Hate) 0(Hate)
ser:  27 = 12(Non-Hate) 15(Hate)
cacarea:  1 = 0(Non-Hate) 1(Hate)
cuatro:  3 = 1(Non-Hate) 2(Hate)
libros:  2 = 2(Non-Hate) 0(Hate)
hocico:  3 = 2(Non-Hate) 1(Hate)
merecia:  14 = 11(Non-Hate) 3(Hate)
jjajajajjaa:  1 = 0(Non-Hate) 1(Hate)
aprenderme:  1 = 1(Non-Hate) 0(Hate)
tianguis:  1 = 1(Non-Hate) 0(Hate)
demostrado:  1 = 0(Non-Hate) 1(Hate)
detenerlo:  1 = 1(Non-Hate) 0(Hate)
exterminar:  1 = 1(Non-Hate) 0(Hate)
descendientes:  1 = 0(Non-Hate) 1(Hate)
patera:  1 = 0(Non-Hate) 1(Hate)
policia:  2 = 0(Non-Hate) 2(Hate)
controles:  1 = 1(Non-Hate) 0(Hate)
deseando:  1 = 1(Non-Hate) 0(Hate)
pura:  1 = 1(Non-Hate) 0(Hate)
libya:  1 = 1(Non-Hate) 0(Hate)
tarada:  1 = 1(Non-Hate) 0(Hate)
alerta:  1 = 1(Non-Hate) 0(Hate)
pueden:  3 = 2(Non-Hate) 1(Hate)
azucar:  1 = 1(Non-Hate) 0(Hate)
envidiosa:  1 = 0(Non-Hate) 1(Hate)
lloren:  1 = 1(Non-Hate) 0(Hate)
repugnante:  1 = 1(Non-Hate) 0(Hate)
destrozara:  1 = 1(Non-Hate) 0(Hate)
demagogia:  1 = 0(Non-Hate) 1(Hate)
mes:  1 = 0(Non-Hate) 1(Hate)
plana:  2 = 1(Non-Hate) 1(Hate)
marlaska:  2 = 1(Non-Hate) 1(Hate)
bicicleta:  1 = 0(Non-Hate) 1(Hate)
usarme:  1 = 1(Non-Hate) 0(Hate)
rayah:  1 = 1(Non-Hate) 0(Hate)
marroquies:  1 = 1(Non-Hate) 0(Hate)
sali:  1 = 1(Non-Hate) 0(Hate)
hacer:  13 = 7(Non-Hate) 6(Hate)
demostras:  1 = 1(Non-Hate) 0(Hate)
realizados:  1 = 1(Non-Hate) 0(Hate)
l:  2 = 2(Non-Hate) 0(Hate)
pobres:  3 = 0(Non-Hate) 3(Hate)
demasiado:  1 = 0(Non-Hate) 1(Hate)
muerete:  1 = 0(Non-Hate) 1(Hate)
rusos:  1 = 1(Non-Hate) 0(Hate)
esperes:  1 = 1(Non-Hate) 0(Hate)
pateras:  1 = 1(Non-Hate) 0(Hate)
civiles:  3 = 0(Non-Hate) 3(Hate)
estaran:  1 = 0(Non-Hate) 1(Hate)
echar:  1 = 0(Non-Hate) 1(Hate)
santa:  1 = 0(Non-Hate) 1(Hate)
seres:  1 = 1(Non-Hate) 0(Hate)
callar:  1 = 1(Non-Hate) 0(Hate)
pagarlo:  1 = 1(Non-Hate) 0(Hate)
diario:  3 = 2(Non-Hate) 1(Hate)
ardiendo:  1 = 0(Non-Hate) 1(Hate)
dentro:  2 = 2(Non-Hate) 0(Hate)
mocos:  1 = 1(Non-Hate) 0(Hate)
reciben:  1 = 0(Non-Hate) 1(Hate)
cierto:  2 = 1(Non-Hate) 1(Hate)
esclavistas:  1 = 0(Non-Hate) 1(Hate)
tipico:  1 = 0(Non-Hate) 1(Hate)
mia:  2 = 0(Non-Hate) 2(Hate)
vale:  5 = 4(Non-Hate) 1(Hate)
tapas:  1 = 0(Non-Hate) 1(Hate)
monetario:  1 = 1(Non-Hate) 0(Hate)
llegaron:  1 = 1(Non-Hate) 0(Hate)
cobrar:  1 = 1(Non-Hate) 0(Hate)
nadie:  2 = 1(Non-Hate) 1(Hate)
diciendo:  1 = 1(Non-Hate) 0(Hate)
haremos:  1 = 0(Non-Hate) 1(Hate)
culpabilizar:  1 = 1(Non-Hate) 0(Hate)
pasaria:  1 = 1(Non-Hate) 0(Hate)
nose:  2 = 0(Non-Hate) 2(Hate)
heridos:  3 = 0(Non-Hate) 3(Hate)
magrebies:  1 = 0(Non-Hate) 1(Hate)
millon:  1 = 1(Non-Hate) 0(Hate)
urrego:  1 = 1(Non-Hate) 0(Hate)
coges:  1 = 1(Non-Hate) 0(Hate)
bbc:  1 = 1(Non-Hate) 0(Hate)
aun:  3 = 1(Non-Hate) 2(Hate)
hamete:  1 = 1(Non-Hate) 0(Hate)
compraran:  1 = 0(Non-Hate) 1(Hate)
sh:  2 = 1(Non-Hate) 1(Hate)
puso:  1 = 0(Non-Hate) 1(Hate)
criterio:  1 = 1(Non-Hate) 0(Hate)
baneos:  1 = 1(Non-Hate) 0(Hate)
jja:  1 = 1(Non-Hate) 0(Hate)
guarra:  15 = 7(Non-Hate) 8(Hate)
habra:  1 = 0(Non-Hate) 1(Hate)
libertades:  1 = 0(Non-Hate) 1(Hate)
historia:  4 = 4(Non-Hate) 0(Hate)
rompen:  1 = 1(Non-Hate) 0(Hate)
pelones:  1 = 0(Non-Hate) 1(Hate)
coladero:  1 = 0(Non-Hate) 1(Hate)
monisimos:  1 = 1(Non-Hate) 0(Hate)
equipo:  2 = 1(Non-Hate) 1(Hate)
desprestigiar:  1 = 1(Non-Hate) 0(Hate)
arrago:  1 = 1(Non-Hate) 0(Hate)
cal:  1 = 0(Non-Hate) 1(Hate)
subsaharianos:  14 = 5(Non-Hate) 9(Hate)
uy:  1 = 1(Non-Hate) 0(Hate)
jovenes:  3 = 2(Non-Hate) 1(Hate)
paises:  6 = 6(Non-Hate) 0(Hate)
get:  1 = 1(Non-Hate) 0(Hate)
chiellini:  1 = 1(Non-Hate) 0(Hate)
latinoamerica:  1 = 0(Non-Hate) 1(Hate)
videos:  2 = 2(Non-Hate) 0(Hate)
puta:  169 = 105(Non-Hate) 64(Hate)
prietas:  1 = 1(Non-Hate) 0(Hate)
cuidado:  1 = 0(Non-Hate) 1(Hate)
hago:  2 = 2(Non-Hate) 0(Hate)
fan:  2 = 1(Non-Hate) 1(Hate)
ue:  1 = 0(Non-Hate) 1(Hate)
manda:  2 = 2(Non-Hate) 0(Hate)
transcendencia:  1 = 1(Non-Hate) 0(Hate)
callo:  1 = 1(Non-Hate) 0(Hate)
luego:  8 = 3(Non-Hate) 5(Hate)
vascos:  1 = 1(Non-Hate) 0(Hate)
lobos:  1 = 1(Non-Hate) 0(Hate)
tranquila:  1 = 1(Non-Hate) 0(Hate)
chicheee:  1 = 0(Non-Hate) 1(Hate)
compartido:  1 = 1(Non-Hate) 0(Hate)
maldito:  5 = 4(Non-Hate) 1(Hate)
xd:  2 = 2(Non-Hate) 0(Hate)
chamo:  1 = 0(Non-Hate) 1(Hate)
atauld:  1 = 0(Non-Hate) 1(Hate)
numeros:  1 = 1(Non-Hate) 0(Hate)
escuelas:  1 = 0(Non-Hate) 1(Hate)
millonaria:  1 = 1(Non-Hate) 0(Hate)
acusa:  1 = 1(Non-Hate) 0(Hate)
pinera:  1 = 0(Non-Hate) 1(Hate)
linea:  2 = 2(Non-Hate) 0(Hate)
peligrosa:  1 = 0(Non-Hate) 1(Hate)
vecinos:  1 = 1(Non-Hate) 0(Hate)
masculinidad:  1 = 1(Non-Hate) 0(Hate)
sincretismo:  1 = 0(Non-Hate) 1(Hate)
empieza:  1 = 1(Non-Hate) 0(Hate)
dos:  4 = 3(Non-Hate) 1(Hate)
senoro:  1 = 1(Non-Hate) 0(Hate)
muestra:  1 = 0(Non-Hate) 1(Hate)
tener:  5 = 4(Non-Hate) 1(Hate)
similar:  2 = 2(Non-Hate) 0(Hate)
canadiense:  1 = 1(Non-Hate) 0(Hate)
cree:  2 = 1(Non-Hate) 1(Hate)
cide:  1 = 1(Non-Hate) 0(Hate)
extremismos:  1 = 0(Non-Hate) 1(Hate)
compadre:  1 = 1(Non-Hate) 0(Hate)
hacemos:  1 = 0(Non-Hate) 1(Hate)
salvada:  1 = 1(Non-Hate) 0(Hate)
desempleado:  1 = 0(Non-Hate) 1(Hate)
faldero:  1 = 0(Non-Hate) 1(Hate)
gilipolleces:  2 = 2(Non-Hate) 0(Hate)
dormir:  3 = 2(Non-Hate) 1(Hate)
hermosa:  6 = 3(Non-Hate) 3(Hate)
menstruacion:  1 = 0(Non-Hate) 1(Hate)
feminazi:  1 = 0(Non-Hate) 1(Hate)
buen:  3 = 3(Non-Hate) 0(Hate)
fuck:  1 = 0(Non-Hate) 1(Hate)
acoso:  17 = 16(Non-Hate) 1(Hate)
biennnn:  1 = 1(Non-Hate) 0(Hate)
vallas:  1 = 1(Non-Hate) 0(Hate)
pones:  2 = 2(Non-Hate) 0(Hate)
cazan:  1 = 0(Non-Hate) 1(Hate)
momentos:  1 = 1(Non-Hate) 0(Hate)
negreros:  1 = 0(Non-Hate) 1(Hate)
glbti:  1 = 1(Non-Hate) 0(Hate)
normal:  1 = 1(Non-Hate) 0(Hate)
encueros:  1 = 0(Non-Hate) 1(Hate)
emocionado:  1 = 1(Non-Hate) 0(Hate)
unf:  1 = 1(Non-Hate) 0(Hate)
diaz:  1 = 1(Non-Hate) 0(Hate)
cosmetica:  1 = 1(Non-Hate) 0(Hate)
perdon:  1 = 0(Non-Hate) 1(Hate)
traidor:  2 = 1(Non-Hate) 1(Hate)
perros:  1 = 1(Non-Hate) 0(Hate)
sindicatos:  1 = 0(Non-Hate) 1(Hate)
tiras:  1 = 1(Non-Hate) 0(Hate)
tacanos:  1 = 0(Non-Hate) 1(Hate)
entrega:  1 = 0(Non-Hate) 1(Hate)
k:  5 = 3(Non-Hate) 2(Hate)
huevean:  1 = 1(Non-Hate) 0(Hate)
cara:  11 = 5(Non-Hate) 6(Hate)
necesidades:  2 = 2(Non-Hate) 0(Hate)
encuentro:  1 = 1(Non-Hate) 0(Hate)
limpia:  1 = 0(Non-Hate) 1(Hate)
da:  6 = 2(Non-Hate) 4(Hate)
mike:  1 = 1(Non-Hate) 0(Hate)
corregir:  1 = 1(Non-Hate) 0(Hate)
daran:  1 = 1(Non-Hate) 0(Hate)
planteo:  1 = 1(Non-Hate) 0(Hate)
ls:  1 = 0(Non-Hate) 1(Hate)
gobierno:  5 = 3(Non-Hate) 2(Hate)
puro:  2 = 1(Non-Hate) 1(Hate)
dependiendo:  1 = 1(Non-Hate) 0(Hate)
rachid:  1 = 1(Non-Hate) 0(Hate)
pidiendo:  1 = 0(Non-Hate) 1(Hate)
mereciais:  1 = 1(Non-Hate) 0(Hate)
wars:  1 = 1(Non-Hate) 0(Hate)
repost:  1 = 1(Non-Hate) 0(Hate)
sudaca:  4 = 1(Non-Hate) 3(Hate)
organizamos:  1 = 1(Non-Hate) 0(Hate)
soltar:  1 = 1(Non-Hate) 0(Hate)
diputacion:  1 = 1(Non-Hate) 0(Hate)
vela:  1 = 0(Non-Hate) 1(Hate)
iglesias:  1 = 1(Non-Hate) 0(Hate)
debilidad:  1 = 0(Non-Hate) 1(Hate)
d:  9 = 5(Non-Hate) 4(Hate)
mireya:  2 = 2(Non-Hate) 0(Hate)
hablo:  1 = 1(Non-Hate) 0(Hate)
aquello:  1 = 1(Non-Hate) 0(Hate)
castlevania:  1 = 1(Non-Hate) 0(Hate)
uyyyy:  1 = 0(Non-Hate) 1(Hate)
b:  1 = 1(Non-Hate) 0(Hate)
momio:  1 = 0(Non-Hate) 1(Hate)
taquizas:  1 = 1(Non-Hate) 0(Hate)
arrollada:  1 = 0(Non-Hate) 1(Hate)
juez:  1 = 1(Non-Hate) 0(Hate)
pagarla:  1 = 0(Non-Hate) 1(Hate)
espanoles:  9 = 2(Non-Hate) 7(Hate)
violasen:  1 = 0(Non-Hate) 1(Hate)
cuerpo:  1 = 1(Non-Hate) 0(Hate)
universo:  1 = 1(Non-Hate) 0(Hate)
carlos:  1 = 1(Non-Hate) 0(Hate)
imprenta:  1 = 1(Non-Hate) 0(Hate)
imagenes:  1 = 1(Non-Hate) 0(Hate)
vicepresidente:  1 = 1(Non-Hate) 0(Hate)
ada:  1 = 0(Non-Hate) 1(Hate)
solista:  1 = 0(Non-Hate) 1(Hate)
jordi:  1 = 1(Non-Hate) 0(Hate)
caminan:  1 = 0(Non-Hate) 1(Hate)
sabes:  3 = 2(Non-Hate) 1(Hate)
baja:  1 = 1(Non-Hate) 0(Hate)
asi:  17 = 9(Non-Hate) 8(Hate)
economia:  1 = 1(Non-Hate) 0(Hate)
populismo:  2 = 2(Non-Hate) 0(Hate)
cadena:  2 = 1(Non-Hate) 1(Hate)
maleducado:  1 = 1(Non-Hate) 0(Hate)
mal:  9 = 6(Non-Hate) 3(Hate)
europeo:  2 = 1(Non-Hate) 1(Hate)
juzgar:  1 = 1(Non-Hate) 0(Hate)
grandes:  1 = 1(Non-Hate) 0(Hate)
ahorcar:  1 = 1(Non-Hate) 0(Hate)
blanquito:  1 = 0(Non-Hate) 1(Hate)
gracioso:  2 = 1(Non-Hate) 1(Hate)
mamarracho:  1 = 1(Non-Hate) 0(Hate)
tt:  1 = 0(Non-Hate) 1(Hate)
volcan:  1 = 0(Non-Hate) 1(Hate)
mantenidos:  1 = 0(Non-Hate) 1(Hate)
casado:  4 = 2(Non-Hate) 2(Hate)
diseno:  1 = 1(Non-Hate) 0(Hate)
okupa:  1 = 0(Non-Hate) 1(Hate)
falta:  2 = 0(Non-Hate) 2(Hate)
subsahariano:  2 = 0(Non-Hate) 2(Hate)
aquella:  1 = 0(Non-Hate) 1(Hate)
pinto:  1 = 1(Non-Hate) 0(Hate)
bloquear:  1 = 1(Non-Hate) 0(Hate)
global:  1 = 0(Non-Hate) 1(Hate)
encapuchamos:  1 = 1(Non-Hate) 0(Hate)
seguidires:  1 = 0(Non-Hate) 1(Hate)
creanme:  1 = 1(Non-Hate) 0(Hate)
dejado:  1 = 0(Non-Hate) 1(Hate)
papa:  2 = 0(Non-Hate) 2(Hate)
parece:  6 = 4(Non-Hate) 2(Hate)
satanico:  1 = 0(Non-Hate) 1(Hate)
lado:  2 = 0(Non-Hate) 2(Hate)
metan:  1 = 0(Non-Hate) 1(Hate)
impostor:  1 = 0(Non-Hate) 1(Hate)
comiendo:  1 = 1(Non-Hate) 0(Hate)
peso:  1 = 1(Non-Hate) 0(Hate)
hizo:  2 = 1(Non-Hate) 1(Hate)
guiris:  1 = 0(Non-Hate) 1(Hate)
gordo:  1 = 1(Non-Hate) 0(Hate)
necesitamos:  1 = 0(Non-Hate) 1(Hate)
mio:  1 = 1(Non-Hate) 0(Hate)
molesto:  1 = 1(Non-Hate) 0(Hate)
quitan:  1 = 0(Non-Hate) 1(Hate)
tanos:  1 = 0(Non-Hate) 1(Hate)
esposa:  1 = 0(Non-Hate) 1(Hate)
organizado:  1 = 0(Non-Hate) 1(Hate)
garga:  1 = 0(Non-Hate) 1(Hate)
votar:  1 = 1(Non-Hate) 0(Hate)
gabacho:  1 = 1(Non-Hate) 0(Hate)
venir:  4 = 3(Non-Hate) 1(Hate)
islamitas:  1 = 0(Non-Hate) 1(Hate)
democracia:  1 = 1(Non-Hate) 0(Hate)
saime:  1 = 1(Non-Hate) 0(Hate)
ver:  13 = 6(Non-Hate) 7(Hate)
tunantes:  1 = 0(Non-Hate) 1(Hate)
billetera:  1 = 1(Non-Hate) 0(Hate)
conversando:  1 = 1(Non-Hate) 0(Hate)
violan:  1 = 0(Non-Hate) 1(Hate)
vi:  3 = 2(Non-Hate) 1(Hate)
autoadjetivan:  1 = 0(Non-Hate) 1(Hate)
acto:  1 = 1(Non-Hate) 0(Hate)
pasaporte:  1 = 1(Non-Hate) 0(Hate)
rendir:  1 = 1(Non-Hate) 0(Hate)
digna:  1 = 0(Non-Hate) 1(Hate)
gusto:  2 = 1(Non-Hate) 1(Hate)
entero:  1 = 1(Non-Hate) 0(Hate)
blancos:  1 = 0(Non-Hate) 1(Hate)
carpeta:  1 = 1(Non-Hate) 0(Hate)
seccion:  1 = 1(Non-Hate) 0(Hate)
justo:  1 = 1(Non-Hate) 0(Hate)
pasaportes:  2 = 1(Non-Hate) 1(Hate)
golpista:  1 = 1(Non-Hate) 0(Hate)
querido:  2 = 1(Non-Hate) 1(Hate)
comi:  1 = 0(Non-Hate) 1(Hate)
mantenerte:  1 = 0(Non-Hate) 1(Hate)
autotune:  1 = 1(Non-Hate) 0(Hate)
regresa:  1 = 1(Non-Hate) 0(Hate)
relevante:  1 = 0(Non-Hate) 1(Hate)
via:  9 = 3(Non-Hate) 6(Hate)
idolos:  1 = 1(Non-Hate) 0(Hate)
random:  1 = 1(Non-Hate) 0(Hate)
pelicula:  2 = 1(Non-Hate) 1(Hate)
muevale:  1 = 0(Non-Hate) 1(Hate)
sociales:  1 = 1(Non-Hate) 0(Hate)
mario:  1 = 0(Non-Hate) 1(Hate)
radicales:  1 = 0(Non-Hate) 1(Hate)
mmm:  1 = 1(Non-Hate) 0(Hate)
emigrar:  1 = 1(Non-Hate) 0(Hate)
considero:  1 = 1(Non-Hate) 0(Hate)
mamen:  2 = 1(Non-Hate) 1(Hate)
mojon:  1 = 1(Non-Hate) 0(Hate)
nombre:  1 = 1(Non-Hate) 0(Hate)
millones:  2 = 1(Non-Hate) 1(Hate)
cholon:  1 = 1(Non-Hate) 0(Hate)
supervisar:  1 = 0(Non-Hate) 1(Hate)
huella:  1 = 1(Non-Hate) 0(Hate)
jp:  2 = 0(Non-Hate) 2(Hate)
sorprendemos:  1 = 0(Non-Hate) 1(Hate)
suerte:  1 = 0(Non-Hate) 1(Hate)
mania:  1 = 1(Non-Hate) 0(Hate)
agarrar:  1 = 1(Non-Hate) 0(Hate)
abusan:  1 = 0(Non-Hate) 1(Hate)
mereces:  25 = 16(Non-Hate) 9(Hate)
poneis:  1 = 1(Non-Hate) 0(Hate)
tibitrampa:  1 = 1(Non-Hate) 0(Hate)
comidita:  1 = 1(Non-Hate) 0(Hate)
cerebro:  5 = 5(Non-Hate) 0(Hate)
arrastrando:  1 = 0(Non-Hate) 1(Hate)
patrulla:  1 = 1(Non-Hate) 0(Hate)
escarnio:  1 = 1(Non-Hate) 0(Hate)
corazones:  1 = 0(Non-Hate) 1(Hate)
convertido:  1 = 0(Non-Hate) 1(Hate)
acudir:  1 = 0(Non-Hate) 1(Hate)
fijas:  1 = 1(Non-Hate) 0(Hate)
virgina:  1 = 1(Non-Hate) 0(Hate)
crea:  3 = 2(Non-Hate) 1(Hate)
poitica:  1 = 0(Non-Hate) 1(Hate)
armas:  2 = 1(Non-Hate) 1(Hate)
borras:  1 = 1(Non-Hate) 0(Hate)
veganos:  1 = 0(Non-Hate) 1(Hate)
llenando:  1 = 0(Non-Hate) 1(Hate)
mismo:  8 = 8(Non-Hate) 0(Hate)
traigo:  1 = 1(Non-Hate) 0(Hate)
dep:  1 = 1(Non-Hate) 0(Hate)
rosas:  1 = 0(Non-Hate) 1(Hate)
vader:  1 = 1(Non-Hate) 0(Hate)
pinas:  1 = 1(Non-Hate) 0(Hate)
ido:  1 = 0(Non-Hate) 1(Hate)
injusto:  1 = 1(Non-Hate) 0(Hate)
mentirosa:  1 = 0(Non-Hate) 1(Hate)
jugador:  1 = 0(Non-Hate) 1(Hate)
amo:  4 = 2(Non-Hate) 2(Hate)
hambrienta:  1 = 1(Non-Hate) 0(Hate)
presentacion:  1 = 0(Non-Hate) 1(Hate)
denuncia:  2 = 1(Non-Hate) 1(Hate)
bonita:  1 = 0(Non-Hate) 1(Hate)
liberada:  1 = 1(Non-Hate) 0(Hate)
siiii:  1 = 1(Non-Hate) 0(Hate)
fea:  1 = 0(Non-Hate) 1(Hate)
controlar:  1 = 1(Non-Hate) 0(Hate)
plata:  1 = 1(Non-Hate) 0(Hate)
adientes:  1 = 0(Non-Hate) 1(Hate)
sudaka:  2 = 0(Non-Hate) 2(Hate)
otorgada:  1 = 0(Non-Hate) 1(Hate)
triunfador:  1 = 1(Non-Hate) 0(Hate)
recuerden:  1 = 1(Non-Hate) 0(Hate)
gratis:  3 = 0(Non-Hate) 3(Hate)
brony:  1 = 1(Non-Hate) 0(Hate)
pasaba:  1 = 1(Non-Hate) 0(Hate)
considerados:  1 = 1(Non-Hate) 0(Hate)
principe:  1 = 1(Non-Hate) 0(Hate)
platillos:  1 = 1(Non-Hate) 0(Hate)
cepeda:  2 = 2(Non-Hate) 0(Hate)
barco:  1 = 1(Non-Hate) 0(Hate)
viejo:  2 = 0(Non-Hate) 2(Hate)
man:  1 = 1(Non-Hate) 0(Hate)
lamentable:  1 = 1(Non-Hate) 0(Hate)
egipto:  2 = 2(Non-Hate) 0(Hate)
ok:  3 = 1(Non-Hate) 2(Hate)
fundo:  2 = 0(Non-Hate) 2(Hate)
malllll:  1 = 1(Non-Hate) 0(Hate)
pajuo:  1 = 0(Non-Hate) 1(Hate)
matate:  1 = 0(Non-Hate) 1(Hate)
teneis:  1 = 1(Non-Hate) 0(Hate)
timon:  1 = 0(Non-Hate) 1(Hate)
va:  14 = 6(Non-Hate) 8(Hate)
prifundas:  1 = 1(Non-Hate) 0(Hate)
colaboracion:  1 = 1(Non-Hate) 0(Hate)
dices:  3 = 2(Non-Hate) 1(Hate)
cruzar:  1 = 0(Non-Hate) 1(Hate)
bella:  1 = 1(Non-Hate) 0(Hate)
chavaleria:  1 = 1(Non-Hate) 0(Hate)
patas:  1 = 0(Non-Hate) 1(Hate)
borracha:  1 = 0(Non-Hate) 1(Hate)
pese:  1 = 0(Non-Hate) 1(Hate)
buenos:  1 = 0(Non-Hate) 1(Hate)
ascenso:  1 = 0(Non-Hate) 1(Hate)
ponte:  1 = 0(Non-Hate) 1(Hate)
tipo:  2 = 0(Non-Hate) 2(Hate)
legal:  1 = 1(Non-Hate) 0(Hate)
delinquiendo:  1 = 0(Non-Hate) 1(Hate)
mantiene:  1 = 1(Non-Hate) 0(Hate)
girls:  1 = 0(Non-Hate) 1(Hate)
android:  1 = 1(Non-Hate) 0(Hate)
mierdanez:  1 = 1(Non-Hate) 0(Hate)
tension:  1 = 1(Non-Hate) 0(Hate)
aventurero:  1 = 1(Non-Hate) 0(Hate)
puedo:  1 = 1(Non-Hate) 0(Hate)
dura:  1 = 1(Non-Hate) 0(Hate)
bebe:  3 = 2(Non-Hate) 1(Hate)
imbecil:  11 = 5(Non-Hate) 6(Hate)
as:  1 = 0(Non-Hate) 1(Hate)
papas:  1 = 1(Non-Hate) 0(Hate)
HASHTAG:  120 = 90(Non-Hate) 30(Hate)
buscamos:  1 = 1(Non-Hate) 0(Hate)
especial:  1 = 1(Non-Hate) 0(Hate)
danna:  2 = 0(Non-Hate) 2(Hate)
akumajo:  1 = 1(Non-Hate) 0(Hate)
quedas:  2 = 1(Non-Hate) 1(Hate)
acho:  1 = 0(Non-Hate) 1(Hate)
quieres:  3 = 0(Non-Hate) 3(Hate)
bomba:  1 = 1(Non-Hate) 0(Hate)
pir:  1 = 0(Non-Hate) 1(Hate)
franco:  3 = 1(Non-Hate) 2(Hate)
dictados:  1 = 1(Non-Hate) 0(Hate)
feisimo:  1 = 0(Non-Hate) 1(Hate)
proaborto:  1 = 1(Non-Hate) 0(Hate)
hombre:  5 = 2(Non-Hate) 3(Hate)
topamos:  1 = 0(Non-Hate) 1(Hate)
uto:  1 = 1(Non-Hate) 0(Hate)
mucha:  1 = 0(Non-Hate) 1(Hate)
babosa:  1 = 0(Non-Hate) 1(Hate)
preparando:  1 = 1(Non-Hate) 0(Hate)
abogada:  1 = 0(Non-Hate) 1(Hate)
seguro:  6 = 2(Non-Hate) 4(Hate)
invitacion:  1 = 1(Non-Hate) 0(Hate)
espaldas:  1 = 0(Non-Hate) 1(Hate)
patino:  1 = 1(Non-Hate) 0(Hate)
piel:  1 = 1(Non-Hate) 0(Hate)
trabajar:  2 = 1(Non-Hate) 1(Hate)
escandalos:  1 = 1(Non-Hate) 0(Hate)
feos:  1 = 0(Non-Hate) 1(Hate)
petardo:  1 = 0(Non-Hate) 1(Hate)
caraaa:  1 = 0(Non-Hate) 1(Hate)
estampida:  1 = 0(Non-Hate) 1(Hate)
senales:  1 = 1(Non-Hate) 0(Hate)
izquierda:  2 = 0(Non-Hate) 2(Hate)
cristianismo:  1 = 1(Non-Hate) 0(Hate)
follar:  1 = 1(Non-Hate) 0(Hate)
ponerlos:  1 = 1(Non-Hate) 0(Hate)
irun:  1 = 1(Non-Hate) 0(Hate)
grupo:  6 = 2(Non-Hate) 4(Hate)
enfrentamos:  1 = 0(Non-Hate) 1(Hate)
gamer:  1 = 1(Non-Hate) 0(Hate)
reunirse:  1 = 1(Non-Hate) 0(Hate)
vidrio:  1 = 0(Non-Hate) 1(Hate)
colegios:  1 = 1(Non-Hate) 0(Hate)
embajada:  1 = 1(Non-Hate) 0(Hate)
poesia:  1 = 1(Non-Hate) 0(Hate)
aporte:  1 = 0(Non-Hate) 1(Hate)
creer:  1 = 1(Non-Hate) 0(Hate)
indiferentemente:  1 = 0(Non-Hate) 1(Hate)
enterralas:  1 = 0(Non-Hate) 1(Hate)
dejando:  1 = 0(Non-Hate) 1(Hate)
peor:  6 = 3(Non-Hate) 3(Hate)
vidas:  1 = 0(Non-Hate) 1(Hate)
mantero:  2 = 0(Non-Hate) 2(Hate)
asquerosas:  1 = 1(Non-Hate) 0(Hate)
victima:  1 = 1(Non-Hate) 0(Hate)
demas:  1 = 0(Non-Hate) 1(Hate)
yates:  1 = 1(Non-Hate) 0(Hate)
senor:  2 = 1(Non-Hate) 1(Hate)
den:  3 = 2(Non-Hate) 1(Hate)
callada:  2 = 0(Non-Hate) 2(Hate)
putos:  5 = 2(Non-Hate) 3(Hate)
crimen:  1 = 0(Non-Hate) 1(Hate)
papi:  2 = 2(Non-Hate) 0(Hate)
importa:  4 = 2(Non-Hate) 2(Hate)
geta:  1 = 0(Non-Hate) 1(Hate)
revista:  1 = 1(Non-Hate) 0(Hate)
ole:  1 = 1(Non-Hate) 0(Hate)
temas:  1 = 1(Non-Hate) 0(Hate)
espanol:  3 = 1(Non-Hate) 2(Hate)
acosadores:  2 = 2(Non-Hate) 0(Hate)
pra:  1 = 1(Non-Hate) 0(Hate)
cerda:  1 = 0(Non-Hate) 1(Hate)
erdogan:  1 = 1(Non-Hate) 0(Hate)
socia:  2 = 1(Non-Hate) 1(Hate)
blanca:  1 = 1(Non-Hate) 0(Hate)
mirar:  2 = 1(Non-Hate) 1(Hate)
aprovechan:  1 = 1(Non-Hate) 0(Hate)
olla:  1 = 0(Non-Hate) 1(Hate)
frontera:  3 = 2(Non-Hate) 1(Hate)
malo:  1 = 1(Non-Hate) 0(Hate)
protecc:  1 = 1(Non-Hate) 0(Hate)
enamoradizo:  1 = 1(Non-Hate) 0(Hate)
nobita:  1 = 0(Non-Hate) 1(Hate)
cita:  1 = 1(Non-Hate) 0(Hate)
uso:  1 = 1(Non-Hate) 0(Hate)
veterano:  1 = 1(Non-Hate) 0(Hate)
kafkianamente:  1 = 0(Non-Hate) 1(Hate)
bandera:  2 = 2(Non-Hate) 0(Hate)
preguntado:  1 = 0(Non-Hate) 1(Hate)
insultar:  1 = 1(Non-Hate) 0(Hate)
reaptria:  1 = 1(Non-Hate) 0(Hate)
debate:  1 = 1(Non-Hate) 0(Hate)
ocico:  1 = 0(Non-Hate) 1(Hate)
espada:  2 = 2(Non-Hate) 0(Hate)
unirles:  1 = 1(Non-Hate) 0(Hate)
ileg:  1 = 0(Non-Hate) 1(Hate)
hajajajajajajajjajajajahajajahahahahahahajaj:  1 = 0(Non-Hate) 1(Hate)
pene:  1 = 0(Non-Hate) 1(Hate)
mierda:  26 = 15(Non-Hate) 11(Hate)
mayor:  1 = 0(Non-Hate) 1(Hate)
hora:  3 = 2(Non-Hate) 1(Hate)
ninos:  3 = 2(Non-Hate) 1(Hate)
saben:  1 = 0(Non-Hate) 1(Hate)
gestion:  1 = 1(Non-Hate) 0(Hate)
duramente:  1 = 0(Non-Hate) 1(Hate)
exito:  2 = 1(Non-Hate) 1(Hate)
totona:  1 = 0(Non-Hate) 1(Hate)
nauseas:  1 = 1(Non-Hate) 0(Hate)
despegar:  1 = 0(Non-Hate) 1(Hate)
mujeres:  12 = 5(Non-Hate) 7(Hate)
entran:  2 = 0(Non-Hate) 2(Hate)
machistas:  1 = 1(Non-Hate) 0(Hate)
extorsionar:  1 = 0(Non-Hate) 1(Hate)
cuchillo:  1 = 1(Non-Hate) 0(Hate)
violencia:  3 = 1(Non-Hate) 2(Hate)
conscientes:  1 = 1(Non-Hate) 0(Hate)
civilizar:  1 = 0(Non-Hate) 1(Hate)
quema:  1 = 1(Non-Hate) 0(Hate)
investigar:  2 = 1(Non-Hate) 1(Hate)
ashley:  1 = 0(Non-Hate) 1(Hate)
chicxs:  1 = 1(Non-Hate) 0(Hate)
hola:  2 = 1(Non-Hate) 1(Hate)
paste:  1 = 1(Non-Hate) 0(Hate)
pdcat:  1 = 0(Non-Hate) 1(Hate)
escucha:  1 = 0(Non-Hate) 1(Hate)
chavo:  1 = 0(Non-Hate) 1(Hate)
explosiva:  1 = 0(Non-Hate) 1(Hate)
asesinado:  1 = 0(Non-Hate) 1(Hate)
decide:  2 = 2(Non-Hate) 0(Hate)
progres:  1 = 0(Non-Hate) 1(Hate)
gueros:  6 = 6(Non-Hate) 0(Hate)
tuiteas:  1 = 1(Non-Hate) 0(Hate)
sobra:  1 = 0(Non-Hate) 1(Hate)
piensas:  2 = 0(Non-Hate) 2(Hate)
dejad:  1 = 0(Non-Hate) 1(Hate)
remil:  1 = 1(Non-Hate) 0(Hate)
ctm:  1 = 1(Non-Hate) 0(Hate)
parido:  2 = 2(Non-Hate) 0(Hate)
arta:  1 = 1(Non-Hate) 0(Hate)
maluma:  1 = 1(Non-Hate) 0(Hate)
upa:  1 = 1(Non-Hate) 0(Hate)
frijoles:  1 = 1(Non-Hate) 0(Hate)
nerea:  1 = 1(Non-Hate) 0(Hate)
guera:  6 = 5(Non-Hate) 1(Hate)
pau:  1 = 1(Non-Hate) 0(Hate)
mercenario:  1 = 1(Non-Hate) 0(Hate)
mioo:  1 = 0(Non-Hate) 1(Hate)
hice:  1 = 1(Non-Hate) 0(Hate)
devolver:  1 = 1(Non-Hate) 0(Hate)
agentes:  1 = 1(Non-Hate) 0(Hate)
cualquier:  2 = 2(Non-Hate) 0(Hate)
preocupeis:  1 = 0(Non-Hate) 1(Hate)
machete:  1 = 0(Non-Hate) 1(Hate)
talvez:  1 = 1(Non-Hate) 0(Hate)
explodo:  1 = 1(Non-Hate) 0(Hate)
bieeeeeen:  1 = 0(Non-Hate) 1(Hate)
siento:  1 = 0(Non-Hate) 1(Hate)
proximo:  1 = 1(Non-Hate) 0(Hate)
cuelguen:  1 = 1(Non-Hate) 0(Hate)
situacion:  1 = 0(Non-Hate) 1(Hate)
depredador:  1 = 1(Non-Hate) 0(Hate)
ingerencia:  1 = 1(Non-Hate) 0(Hate)
pinche:  10 = 3(Non-Hate) 7(Hate)
enojaron:  1 = 1(Non-Hate) 0(Hate)
traves:  1 = 1(Non-Hate) 0(Hate)
artificial:  1 = 1(Non-Hate) 0(Hate)
junto:  1 = 0(Non-Hate) 1(Hate)
cibernetico:  1 = 1(Non-Hate) 0(Hate)
bendiciones:  1 = 0(Non-Hate) 1(Hate)
alegras:  1 = 1(Non-Hate) 0(Hate)
alarma:  1 = 0(Non-Hate) 1(Hate)
pego:  2 = 1(Non-Hate) 1(Hate)
conversar:  1 = 1(Non-Hate) 0(Hate)
ofreces:  1 = 0(Non-Hate) 1(Hate)
morra:  1 = 0(Non-Hate) 1(Hate)
suroeste:  1 = 1(Non-Hate) 0(Hate)
guardias:  3 = 0(Non-Hate) 3(Hate)
tumores:  1 = 1(Non-Hate) 0(Hate)
abrazarte:  1 = 0(Non-Hate) 1(Hate)
deportaciones:  1 = 1(Non-Hate) 0(Hate)
vienen:  5 = 0(Non-Hate) 5(Hate)
cese:  1 = 1(Non-Hate) 0(Hate)
popular:  1 = 1(Non-Hate) 0(Hate)
interesa:  1 = 1(Non-Hate) 0(Hate)
sucia:  2 = 1(Non-Hate) 1(Hate)
vayan:  1 = 0(Non-Hate) 1(Hate)
vender:  2 = 1(Non-Hate) 1(Hate)
racismo:  2 = 2(Non-Hate) 0(Hate)
terminal:  1 = 1(Non-Hate) 0(Hate)
compa:  1 = 1(Non-Hate) 0(Hate)
viviendas:  1 = 0(Non-Hate) 1(Hate)
campeones:  1 = 1(Non-Hate) 0(Hate)
aborto:  1 = 1(Non-Hate) 0(Hate)
work:  1 = 0(Non-Hate) 1(Hate)
independencia:  1 = 1(Non-Hate) 0(Hate)
heroe:  1 = 1(Non-Hate) 0(Hate)
importara:  1 = 0(Non-Hate) 1(Hate)
cumpleanos:  1 = 1(Non-Hate) 0(Hate)
piernas:  1 = 0(Non-Hate) 1(Hate)
incorregible:  1 = 1(Non-Hate) 0(Hate)
likes:  1 = 1(Non-Hate) 0(Hate)
pedro:  1 = 0(Non-Hate) 1(Hate)
karma:  1 = 1(Non-Hate) 0(Hate)
deportado:  1 = 1(Non-Hate) 0(Hate)
gente:  12 = 9(Non-Hate) 3(Hate)
fabricara:  1 = 0(Non-Hate) 1(Hate)
documentacion:  1 = 0(Non-Hate) 1(Hate)
baila:  1 = 1(Non-Hate) 0(Hate)
acuerpada:  1 = 0(Non-Hate) 1(Hate)
vamos:  6 = 6(Non-Hate) 0(Hate)
culpa:  7 = 3(Non-Hate) 4(Hate)
gueras:  2 = 1(Non-Hate) 1(Hate)
valla:  6 = 2(Non-Hate) 4(Hate)
ahorro:  1 = 0(Non-Hate) 1(Hate)
tapar:  1 = 0(Non-Hate) 1(Hate)
matona:  1 = 0(Non-Hate) 1(Hate)
beyonce:  1 = 1(Non-Hate) 0(Hate)
brasil:  1 = 0(Non-Hate) 1(Hate)
tamben:  1 = 0(Non-Hate) 1(Hate)
wooow:  1 = 1(Non-Hate) 0(Hate)
desaparecio:  1 = 1(Non-Hate) 0(Hate)
intereses:  1 = 1(Non-Hate) 0(Hate)
ay:  2 = 0(Non-Hate) 2(Hate)
trabajas:  1 = 1(Non-Hate) 0(Hate)
institucion:  1 = 1(Non-Hate) 0(Hate)
expulsados:  1 = 1(Non-Hate) 0(Hate)
numero:  2 = 1(Non-Hate) 1(Hate)
equivocaste:  1 = 0(Non-Hate) 1(Hate)
noche:  1 = 1(Non-Hate) 0(Hate)
exclusivas:  1 = 1(Non-Hate) 0(Hate)
juro:  1 = 1(Non-Hate) 0(Hate)
rompe:  1 = 0(Non-Hate) 1(Hate)
faltas:  1 = 0(Non-Hate) 1(Hate)
universos:  1 = 1(Non-Hate) 0(Hate)
creo:  4 = 2(Non-Hate) 2(Hate)
satira:  1 = 0(Non-Hate) 1(Hate)
dormida:  1 = 1(Non-Hate) 0(Hate)
italianos:  1 = 1(Non-Hate) 0(Hate)
inundan:  1 = 1(Non-Hate) 0(Hate)
legales:  1 = 0(Non-Hate) 1(Hate)
hagas:  1 = 1(Non-Hate) 0(Hate)
vulnerado:  1 = 1(Non-Hate) 0(Hate)
ciencia:  1 = 0(Non-Hate) 1(Hate)
moscas:  1 = 0(Non-Hate) 1(Hate)
quedarme:  1 = 1(Non-Hate) 0(Hate)
cada:  4 = 3(Non-Hate) 1(Hate)
portaban:  1 = 0(Non-Hate) 1(Hate)
aire:  1 = 0(Non-Hate) 1(Hate)
estrasburgo:  1 = 1(Non-Hate) 0(Hate)
igualdad:  1 = 1(Non-Hate) 0(Hate)
rancho:  2 = 2(Non-Hate) 0(Hate)
podrian:  1 = 1(Non-Hate) 0(Hate)
ale:  2 = 0(Non-Hate) 2(Hate)
libre:  2 = 1(Non-Hate) 1(Hate)
television:  1 = 1(Non-Hate) 0(Hate)
mensaje:  1 = 1(Non-Hate) 0(Hate)
desperto:  1 = 1(Non-Hate) 0(Hate)
infiel:  1 = 1(Non-Hate) 0(Hate)
gracias:  5 = 4(Non-Hate) 1(Hate)
podran:  1 = 1(Non-Hate) 0(Hate)
estalle:  1 = 0(Non-Hate) 1(Hate)
benatia:  1 = 1(Non-Hate) 0(Hate)
motorizada:  1 = 0(Non-Hate) 1(Hate)
tecnicos:  1 = 0(Non-Hate) 1(Hate)
provocan:  1 = 1(Non-Hate) 0(Hate)
comes:  1 = 0(Non-Hate) 1(Hate)
autobus:  1 = 1(Non-Hate) 0(Hate)
reves:  1 = 1(Non-Hate) 0(Hate)
rodillas:  1 = 0(Non-Hate) 1(Hate)
saldria:  1 = 1(Non-Hate) 0(Hate)
darle:  1 = 1(Non-Hate) 0(Hate)
we:  1 = 1(Non-Hate) 0(Hate)
jjsjajs:  1 = 1(Non-Hate) 0(Hate)
rendirse:  1 = 1(Non-Hate) 0(Hate)
pudra:  1 = 0(Non-Hate) 1(Hate)
llevados:  1 = 0(Non-Hate) 1(Hate)
aquel:  3 = 0(Non-Hate) 3(Hate)
probaddo:  1 = 0(Non-Hate) 1(Hate)
kfc:  1 = 0(Non-Hate) 1(Hate)
escuchando:  1 = 1(Non-Hate) 0(Hate)
deja:  4 = 0(Non-Hate) 4(Hate)
dime:  2 = 0(Non-Hate) 2(Hate)
provocando:  1 = 0(Non-Hate) 1(Hate)
ginger:  2 = 0(Non-Hate) 2(Hate)
justicia:  1 = 0(Non-Hate) 1(Hate)
intimidad:  1 = 1(Non-Hate) 0(Hate)
agricultura:  1 = 1(Non-Hate) 0(Hate)
vergas:  1 = 0(Non-Hate) 1(Hate)
sonrisas:  1 = 0(Non-Hate) 1(Hate)
preparamos:  1 = 1(Non-Hate) 0(Hate)
recopilare:  1 = 0(Non-Hate) 1(Hate)
bicho:  2 = 2(Non-Hate) 0(Hate)
comio:  1 = 0(Non-Hate) 1(Hate)
wouldn:  1 = 0(Non-Hate) 1(Hate)
accion:  1 = 1(Non-Hate) 0(Hate)
bieja:  1 = 0(Non-Hate) 1(Hate)
tramita:  1 = 0(Non-Hate) 1(Hate)
dignifique:  1 = 0(Non-Hate) 1(Hate)
perdido:  1 = 1(Non-Hate) 0(Hate)
alderaan:  1 = 1(Non-Hate) 0(Hate)
pirotecnias:  1 = 0(Non-Hate) 1(Hate)
vivan:  1 = 1(Non-Hate) 0(Hate)
and:  1 = 0(Non-Hate) 1(Hate)
fede:  2 = 2(Non-Hate) 0(Hate)
dejen:  2 = 2(Non-Hate) 0(Hate)
haber:  3 = 2(Non-Hate) 1(Hate)
senda:  2 = 1(Non-Hate) 1(Hate)
puto:  5 = 3(Non-Hate) 2(Hate)
inutiles:  1 = 0(Non-Hate) 1(Hate)
varios:  1 = 1(Non-Hate) 0(Hate)
chingo:  1 = 1(Non-Hate) 0(Hate)
vieja:  2 = 0(Non-Hate) 2(Hate)
pobre:  5 = 1(Non-Hate) 4(Hate)
preste:  1 = 0(Non-Hate) 1(Hate)
traicio:  1 = 0(Non-Hate) 1(Hate)
reina:  2 = 2(Non-Hate) 0(Hate)
porqueria:  1 = 0(Non-Hate) 1(Hate)
realidad:  1 = 0(Non-Hate) 1(Hate)
negocio:  1 = 0(Non-Hate) 1(Hate)
delitos:  2 = 1(Non-Hate) 1(Hate)
africano:  1 = 0(Non-Hate) 1(Hate)
cabron:  2 = 1(Non-Hate) 1(Hate)
give:  1 = 0(Non-Hate) 1(Hate)
tremenda:  1 = 0(Non-Hate) 1(Hate)
pastrana:  1 = 1(Non-Hate) 0(Hate)
habeis:  1 = 0(Non-Hate) 1(Hate)
fortnite:  1 = 1(Non-Hate) 0(Hate)
user:  1 = 0(Non-Hate) 1(Hate)
loca:  1 = 0(Non-Hate) 1(Hate)
sentido:  1 = 1(Non-Hate) 0(Hate)
mala:  4 = 0(Non-Hate) 4(Hate)
vais:  1 = 0(Non-Hate) 1(Hate)
socialismo:  1 = 0(Non-Hate) 1(Hate)
mantienen:  1 = 1(Non-Hate) 0(Hate)
navidad:  1 = 0(Non-Hate) 1(Hate)
crossover:  1 = 1(Non-Hate) 0(Hate)
europ:  1 = 0(Non-Hate) 1(Hate)
molestar:  1 = 1(Non-Hate) 0(Hate)
leer:  1 = 1(Non-Hate) 0(Hate)
manana:  2 = 2(Non-Hate) 0(Hate)
reforma:  1 = 1(Non-Hate) 0(Hate)
tontos:  2 = 2(Non-Hate) 0(Hate)
importante:  1 = 0(Non-Hate) 1(Hate)
calles:  10 = 7(Non-Hate) 3(Hate)
estatuto:  1 = 0(Non-Hate) 1(Hate)
direccion:  1 = 1(Non-Hate) 0(Hate)
denuncian:  1 = 1(Non-Hate) 0(Hate)
barbarie:  1 = 1(Non-Hate) 0(Hate)
podemos:  1 = 0(Non-Hate) 1(Hate)
civil:  2 = 1(Non-Hate) 1(Hate)
defiendo:  2 = 0(Non-Hate) 2(Hate)
vagina:  1 = 0(Non-Hate) 1(Hate)
americano:  1 = 0(Non-Hate) 1(Hate)
menos:  8 = 3(Non-Hate) 5(Hate)
ground:  1 = 1(Non-Hate) 0(Hate)
perrito:  1 = 0(Non-Hate) 1(Hate)
varias:  1 = 0(Non-Hate) 1(Hate)
siquiera:  1 = 1(Non-Hate) 0(Hate)
maraca:  1 = 0(Non-Hate) 1(Hate)
inventa:  1 = 1(Non-Hate) 0(Hate)
pendiente:  1 = 0(Non-Hate) 1(Hate)
hideputa:  1 = 1(Non-Hate) 0(Hate)
desapareces:  1 = 0(Non-Hate) 1(Hate)
cojan:  2 = 1(Non-Hate) 1(Hate)
tacos:  2 = 2(Non-Hate) 0(Hate)
peluche:  1 = 1(Non-Hate) 0(Hate)
escote:  1 = 1(Non-Hate) 0(Hate)
recibido:  1 = 1(Non-Hate) 0(Hate)
adan:  2 = 0(Non-Hate) 2(Hate)
feminista:  2 = 1(Non-Hate) 1(Hate)
dejada:  1 = 1(Non-Hate) 0(Hate)
rodee:  1 = 1(Non-Hate) 0(Hate)
comen:  1 = 0(Non-Hate) 1(Hate)
migratoria:  3 = 2(Non-Hate) 1(Hate)
welcome:  1 = 0(Non-Hate) 1(Hate)
juran:  1 = 1(Non-Hate) 0(Hate)
odio:  4 = 3(Non-Hate) 1(Hate)
mennnnnnn:  1 = 1(Non-Hate) 0(Hate)
italiano:  1 = 0(Non-Hate) 1(Hate)
ladilla:  1 = 0(Non-Hate) 1(Hate)
contribuyente:  1 = 0(Non-Hate) 1(Hate)
edicion:  1 = 1(Non-Hate) 0(Hate)
luz:  1 = 0(Non-Hate) 1(Hate)
moro:  1 = 1(Non-Hate) 0(Hate)
mmmm:  2 = 0(Non-Hate) 2(Hate)
viaje:  1 = 1(Non-Hate) 0(Hate)
eche:  1 = 1(Non-Hate) 0(Hate)
cortarme:  1 = 1(Non-Hate) 0(Hate)
empecemos:  1 = 0(Non-Hate) 1(Hate)
lenguas:  1 = 1(Non-Hate) 0(Hate)
desd:  1 = 1(Non-Hate) 0(Hate)
campo:  1 = 0(Non-Hate) 1(Hate)
expulsion:  1 = 0(Non-Hate) 1(Hate)
soldarle:  1 = 0(Non-Hate) 1(Hate)
dice:  7 = 3(Non-Hate) 4(Hate)
victimas:  2 = 1(Non-Hate) 1(Hate)
piedrazo:  1 = 1(Non-Hate) 0(Hate)
felicitaciones:  1 = 1(Non-Hate) 0(Hate)
dicho:  3 = 1(Non-Hate) 2(Hate)
mismos:  1 = 0(Non-Hate) 1(Hate)
enfermedades:  1 = 1(Non-Hate) 0(Hate)
ciudadanos:  1 = 0(Non-Hate) 1(Hate)
ea:  1 = 0(Non-Hate) 1(Hate)
secretos:  1 = 1(Non-Hate) 0(Hate)
dan:  2 = 0(Non-Hate) 2(Hate)
pensar:  3 = 1(Non-Hate) 2(Hate)
impuestos:  1 = 0(Non-Hate) 1(Hate)
jajajajaja:  1 = 0(Non-Hate) 1(Hate)
partida:  1 = 1(Non-Hate) 0(Hate)
mueranse:  1 = 1(Non-Hate) 0(Hate)
zidane:  1 = 1(Non-Hate) 0(Hate)
griffin:  1 = 0(Non-Hate) 1(Hate)
callateeee:  2 = 0(Non-Hate) 2(Hate)
apoderarnos:  1 = 0(Non-Hate) 1(Hate)
serias:  2 = 1(Non-Hate) 1(Hate)
viviendo:  1 = 0(Non-Hate) 1(Hate)
taha:  1 = 1(Non-Hate) 0(Hate)
nazionalista:  1 = 1(Non-Hate) 0(Hate)
empedamos:  1 = 0(Non-Hate) 1(Hate)
quieren:  1 = 1(Non-Hate) 0(Hate)
antiguos:  1 = 0(Non-Hate) 1(Hate)
desgracia:  1 = 1(Non-Hate) 0(Hate)
sobretodo:  1 = 0(Non-Hate) 1(Hate)
suenos:  2 = 0(Non-Hate) 2(Hate)
calle:  3 = 1(Non-Hate) 2(Hate)
fantasia:  1 = 1(Non-Hate) 0(Hate)
bajando:  1 = 0(Non-Hate) 1(Hate)
dios:  2 = 0(Non-Hate) 2(Hate)
poblacion:  2 = 2(Non-Hate) 0(Hate)
selva:  2 = 2(Non-Hate) 0(Hate)
registro:  1 = 1(Non-Hate) 0(Hate)
top:  1 = 1(Non-Hate) 0(Hate)
mezquinos:  1 = 1(Non-Hate) 0(Hate)
abrir:  1 = 0(Non-Hate) 1(Hate)
mayoria:  1 = 0(Non-Hate) 1(Hate)
feas:  1 = 1(Non-Hate) 0(Hate)
untar:  1 = 0(Non-Hate) 1(Hate)
tradicion:  1 = 1(Non-Hate) 0(Hate)
ciertas:  1 = 1(Non-Hate) 0(Hate)
comento:  1 = 0(Non-Hate) 1(Hate)
macri:  1 = 1(Non-Hate) 0(Hate)
corazon:  3 = 2(Non-Hate) 1(Hate)
caballero:  1 = 1(Non-Hate) 0(Hate)
altura:  1 = 0(Non-Hate) 1(Hate)
tuneladora:  1 = 1(Non-Hate) 0(Hate)
legitima:  1 = 1(Non-Hate) 0(Hate)
merecido:  1 = 0(Non-Hate) 1(Hate)
shams:  1 = 1(Non-Hate) 0(Hate)
tendra:  1 = 1(Non-Hate) 0(Hate)
guias:  1 = 1(Non-Hate) 0(Hate)
sobrina:  1 = 0(Non-Hate) 1(Hate)
fragil:  1 = 1(Non-Hate) 0(Hate)
lees:  2 = 2(Non-Hate) 0(Hate)
llamarles:  1 = 1(Non-Hate) 0(Hate)
viola:  1 = 0(Non-Hate) 1(Hate)
costar:  1 = 0(Non-Hate) 1(Hate)
enterate:  1 = 1(Non-Hate) 0(Hate)
superman:  1 = 0(Non-Hate) 1(Hate)
cometieron:  1 = 0(Non-Hate) 1(Hate)
quieran:  1 = 1(Non-Hate) 0(Hate)
arabes:  26 = 16(Non-Hate) 10(Hate)
idea:  8 = 7(Non-Hate) 1(Hate)
vinir:  1 = 0(Non-Hate) 1(Hate)
rubios:  1 = 1(Non-Hate) 0(Hate)
posicionado:  1 = 0(Non-Hate) 1(Hate)
olvidar:  1 = 1(Non-Hate) 0(Hate)
ademas:  3 = 0(Non-Hate) 3(Hate)
saco:  1 = 0(Non-Hate) 1(Hate)
robolucionaria:  1 = 0(Non-Hate) 1(Hate)
listo:  1 = 1(Non-Hate) 0(Hate)
schengen:  1 = 1(Non-Hate) 0(Hate)
caraquista:  1 = 0(Non-Hate) 1(Hate)
algeciras:  5 = 0(Non-Hate) 5(Hate)
propositos:  1 = 1(Non-Hate) 0(Hate)
amar:  1 = 0(Non-Hate) 1(Hate)
guia:  1 = 1(Non-Hate) 0(Hate)
debemos:  2 = 1(Non-Hate) 1(Hate)
faltar:  2 = 2(Non-Hate) 0(Hate)
caballo:  2 = 1(Non-Hate) 1(Hate)
notan:  1 = 0(Non-Hate) 1(Hate)
hijueputa:  1 = 0(Non-Hate) 1(Hate)
trastorno:  1 = 1(Non-Hate) 0(Hate)
wacha:  1 = 0(Non-Hate) 1(Hate)
twittazo:  1 = 0(Non-Hate) 1(Hate)
foco:  1 = 0(Non-Hate) 1(Hate)
ilegal:  4 = 1(Non-Hate) 3(Hate)
mandibula:  1 = 1(Non-Hate) 0(Hate)
relaja:  1 = 1(Non-Hate) 0(Hate)
sufro:  1 = 1(Non-Hate) 0(Hate)
cnp:  1 = 1(Non-Hate) 0(Hate)
whatsap:  1 = 1(Non-Hate) 0(Hate)
shuacale:  1 = 0(Non-Hate) 1(Hate)
filo:  1 = 1(Non-Hate) 0(Hate)
emiratos:  3 = 3(Non-Hate) 0(Hate)
hispana:  1 = 1(Non-Hate) 0(Hate)
camelot:  1 = 1(Non-Hate) 0(Hate)
fustiga:  1 = 1(Non-Hate) 0(Hate)
opcion:  2 = 2(Non-Hate) 0(Hate)
maricon:  2 = 2(Non-Hate) 0(Hate)
alegria:  1 = 1(Non-Hate) 0(Hate)
corruptos:  1 = 0(Non-Hate) 1(Hate)
jugar:  2 = 2(Non-Hate) 0(Hate)
desierto:  2 = 1(Non-Hate) 1(Hate)
mejorada:  1 = 1(Non-Hate) 0(Hate)
conservadoras:  1 = 0(Non-Hate) 1(Hate)
culiao:  1 = 1(Non-Hate) 0(Hate)
lobo:  1 = 1(Non-Hate) 0(Hate)
chupame:  1 = 0(Non-Hate) 1(Hate)
tios:  1 = 1(Non-Hate) 0(Hate)
linda:  3 = 1(Non-Hate) 2(Hate)
anonimo:  1 = 0(Non-Hate) 1(Hate)
encorazonas:  1 = 1(Non-Hate) 0(Hate)
okupas:  1 = 0(Non-Hate) 1(Hate)
dedicate:  1 = 0(Non-Hate) 1(Hate)
shopping:  1 = 1(Non-Hate) 0(Hate)
tonteria:  1 = 1(Non-Hate) 0(Hate)
complace:  1 = 0(Non-Hate) 1(Hate)
canta:  1 = 0(Non-Hate) 1(Hate)
puerto:  1 = 1(Non-Hate) 0(Hate)
pendejadas:  2 = 1(Non-Hate) 1(Hate)
soportable:  1 = 0(Non-Hate) 1(Hate)
quimica:  1 = 0(Non-Hate) 1(Hate)
laurita:  1 = 1(Non-Hate) 0(Hate)
sirio:  1 = 1(Non-Hate) 0(Hate)
vivir:  3 = 1(Non-Hate) 2(Hate)
suma:  1 = 0(Non-Hate) 1(Hate)
ldvdd:  1 = 1(Non-Hate) 0(Hate)
pesar:  1 = 1(Non-Hate) 0(Hate)
abre:  2 = 1(Non-Hate) 1(Hate)
u:  1 = 1(Non-Hate) 0(Hate)
verse:  1 = 0(Non-Hate) 1(Hate)
encima:  1 = 1(Non-Hate) 0(Hate)
c:  1 = 0(Non-Hate) 1(Hate)
tonto:  1 = 1(Non-Hate) 0(Hate)
disfruta:  1 = 1(Non-Hate) 0(Hate)
ven:  3 = 2(Non-Hate) 1(Hate)
connotaciones:  2 = 1(Non-Hate) 1(Hate)
ignorancia:  2 = 1(Non-Hate) 1(Hate)
femi:  1 = 0(Non-Hate) 1(Hate)
fronteras:  2 = 2(Non-Hate) 0(Hate)
postor:  1 = 0(Non-Hate) 1(Hate)
ucristo:  1 = 1(Non-Hate) 0(Hate)
acusacion:  1 = 1(Non-Hate) 0(Hate)
postureo:  1 = 1(Non-Hate) 0(Hate)
populista:  1 = 1(Non-Hate) 0(Hate)
extranjero:  2 = 1(Non-Hate) 1(Hate)
entren:  3 = 1(Non-Hate) 2(Hate)
cabeza:  4 = 4(Non-Hate) 0(Hate)
caer:  1 = 0(Non-Hate) 1(Hate)
armar:  1 = 0(Non-Hate) 1(Hate)
alicante:  1 = 1(Non-Hate) 0(Hate)
crush:  1 = 1(Non-Hate) 0(Hate)
terrorista:  2 = 1(Non-Hate) 1(Hate)
vnzla:  1 = 1(Non-Hate) 0(Hate)
llegada:  2 = 2(Non-Hate) 0(Hate)
educada:  1 = 0(Non-Hate) 1(Hate)
napp:  1 = 1(Non-Hate) 0(Hate)
fake:  1 = 0(Non-Hate) 1(Hate)
violacion:  12 = 11(Non-Hate) 1(Hate)
cancion:  4 = 2(Non-Hate) 2(Hate)
temporada:  1 = 1(Non-Hate) 0(Hate)
diga:  3 = 2(Non-Hate) 1(Hate)
andalus:  1 = 1(Non-Hate) 0(Hate)
indocumentado:  5 = 3(Non-Hate) 2(Hate)
valparaiso:  1 = 1(Non-Hate) 0(Hate)
com:  1 = 1(Non-Hate) 0(Hate)
sientan:  1 = 1(Non-Hate) 0(Hate)
merecian:  1 = 1(Non-Hate) 0(Hate)
asquerosos:  2 = 1(Non-Hate) 1(Hate)
ocurra:  1 = 1(Non-Hate) 0(Hate)
honor:  1 = 1(Non-Hate) 0(Hate)
pared:  1 = 0(Non-Hate) 1(Hate)
dio:  3 = 3(Non-Hate) 0(Hate)
miserables:  1 = 1(Non-Hate) 0(Hate)
q:  44 = 24(Non-Hate) 20(Hate)
ves:  4 = 0(Non-Hate) 4(Hate)
verias:  1 = 0(Non-Hate) 1(Hate)
mmmmm:  2 = 0(Non-Hate) 2(Hate)
punetero:  1 = 0(Non-Hate) 1(Hate)
buscala:  1 = 0(Non-Hate) 1(Hate)
cojones:  4 = 2(Non-Hate) 2(Hate)
molesta:  1 = 1(Non-Hate) 0(Hate)
delincuencia:  1 = 0(Non-Hate) 1(Hate)
reflejada:  1 = 1(Non-Hate) 0(Hate)
ligar:  1 = 0(Non-Hate) 1(Hate)
inspiro:  1 = 0(Non-Hate) 1(Hate)
encapucharnos:  1 = 1(Non-Hate) 0(Hate)
ponemos:  1 = 1(Non-Hate) 0(Hate)
sirios:  2 = 1(Non-Hate) 1(Hate)
cagon:  1 = 1(Non-Hate) 0(Hate)
video:  4 = 1(Non-Hate) 3(Hate)
mostro:  1 = 1(Non-Hate) 0(Hate)
pegando:  1 = 0(Non-Hate) 1(Hate)
astrid:  1 = 0(Non-Hate) 1(Hate)
mojada:  1 = 0(Non-Hate) 1(Hate)
teclado:  2 = 2(Non-Hate) 0(Hate)
solemnes:  1 = 0(Non-Hate) 1(Hate)
barcelona:  3 = 1(Non-Hate) 2(Hate)
detras:  2 = 0(Non-Hate) 2(Hate)
correcta:  1 = 1(Non-Hate) 0(Hate)
acercarse:  1 = 0(Non-Hate) 1(Hate)
vestir:  2 = 2(Non-Hate) 0(Hate)
panuelazo:  1 = 1(Non-Hate) 0(Hate)
escuchame:  1 = 1(Non-Hate) 0(Hate)
vigna:  1 = 1(Non-Hate) 0(Hate)
agrediendo:  2 = 0(Non-Hate) 2(Hate)
middle:  1 = 1(Non-Hate) 0(Hate)
ines:  1 = 1(Non-Hate) 0(Hate)
lamentablemente:  1 = 0(Non-Hate) 1(Hate)
desgracias:  1 = 0(Non-Hate) 1(Hate)
divina:  1 = 0(Non-Hate) 1(Hate)
plaga:  1 = 0(Non-Hate) 1(Hate)
rosalia:  1 = 0(Non-Hate) 1(Hate)
simon:  1 = 1(Non-Hate) 0(Hate)
pueblo:  7 = 4(Non-Hate) 3(Hate)
proxima:  1 = 0(Non-Hate) 1(Hate)
muertos:  1 = 0(Non-Hate) 1(Hate)
tincho:  1 = 1(Non-Hate) 0(Hate)
cristina:  2 = 1(Non-Hate) 1(Hate)
llegar:  3 = 0(Non-Hate) 3(Hate)
presos:  1 = 1(Non-Hate) 0(Hate)
riesgo:  1 = 1(Non-Hate) 0(Hate)
escandaliza:  1 = 1(Non-Hate) 0(Hate)
hartos:  1 = 0(Non-Hate) 1(Hate)
pony:  1 = 1(Non-Hate) 0(Hate)
tiempos:  2 = 1(Non-Hate) 1(Hate)
cejas:  1 = 0(Non-Hate) 1(Hate)
chchis:  1 = 0(Non-Hate) 1(Hate)
impura:  1 = 0(Non-Hate) 1(Hate)
saludito:  1 = 1(Non-Hate) 0(Hate)
omar:  1 = 1(Non-Hate) 0(Hate)
nazis:  1 = 0(Non-Hate) 1(Hate)
droga:  2 = 1(Non-Hate) 1(Hate)
sientas:  1 = 1(Non-Hate) 0(Hate)
hijo:  31 = 31(Non-Hate) 0(Hate)
culturizado:  1 = 0(Non-Hate) 1(Hate)
xddd:  1 = 1(Non-Hate) 0(Hate)
colombiano:  1 = 0(Non-Hate) 1(Hate)
pasta:  1 = 1(Non-Hate) 0(Hate)
ofrecen:  1 = 1(Non-Hate) 0(Hate)
pobreza:  1 = 0(Non-Hate) 1(Hate)
ee:  1 = 1(Non-Hate) 0(Hate)
invito:  1 = 0(Non-Hate) 1(Hate)
derribo:  1 = 1(Non-Hate) 0(Hate)
h:  1 = 1(Non-Hate) 0(Hate)
plantea:  1 = 1(Non-Hate) 0(Hate)
puedan:  2 = 1(Non-Hate) 1(Hate)
queres:  2 = 0(Non-Hate) 2(Hate)
mili:  1 = 0(Non-Hate) 1(Hate)
torneo:  1 = 1(Non-Hate) 0(Hate)
humildad:  1 = 1(Non-Hate) 0(Hate)
vaga:  1 = 0(Non-Hate) 1(Hate)
esperan:  1 = 0(Non-Hate) 1(Hate)
er:  1 = 1(Non-Hate) 0(Hate)
proclamas:  1 = 1(Non-Hate) 0(Hate)
enfrentarnos:  1 = 0(Non-Hate) 1(Hate)
noriega:  1 = 0(Non-Hate) 1(Hate)
situvieraelmismoardorjesus:  1 = 0(Non-Hate) 1(Hate)
salpicar:  1 = 0(Non-Hate) 1(Hate)
atrocidades:  1 = 1(Non-Hate) 0(Hate)
contagiamos:  1 = 1(Non-Hate) 0(Hate)
dais:  2 = 1(Non-Hate) 1(Hate)
musica:  2 = 2(Non-Hate) 0(Hate)
hacia:  3 = 3(Non-Hate) 0(Hate)
cuernos:  1 = 0(Non-Hate) 1(Hate)
abrazo:  1 = 1(Non-Hate) 0(Hate)
deberan:  1 = 1(Non-Hate) 0(Hate)
barrio:  1 = 0(Non-Hate) 1(Hate)
tarta:  1 = 0(Non-Hate) 1(Hate)
metro:  1 = 0(Non-Hate) 1(Hate)
angel:  1 = 1(Non-Hate) 0(Hate)
limantur:  1 = 1(Non-Hate) 0(Hate)
preocuparnos:  1 = 1(Non-Hate) 0(Hate)
daria:  1 = 0(Non-Hate) 1(Hate)
caseta:  1 = 1(Non-Hate) 0(Hate)
politicas:  1 = 1(Non-Hate) 0(Hate)
bahia:  1 = 0(Non-Hate) 1(Hate)
demagogos:  1 = 0(Non-Hate) 1(Hate)
RISAS:  34 = 19(Non-Hate) 15(Hate)
revistas:  1 = 1(Non-Hate) 0(Hate)
caben:  1 = 0(Non-Hate) 1(Hate)
competir:  1 = 1(Non-Hate) 0(Hate)
nalgas:  1 = 1(Non-Hate) 0(Hate)
lacra:  1 = 1(Non-Hate) 0(Hate)
iuuuuuuuh:  1 = 0(Non-Hate) 1(Hate)
orden:  1 = 1(Non-Hate) 0(Hate)
alvvvvvvvv:  1 = 0(Non-Hate) 1(Hate)
llamar:  2 = 2(Non-Hate) 0(Hate)
chillona:  1 = 1(Non-Hate) 0(Hate)
ideologia:  1 = 1(Non-Hate) 0(Hate)
llores:  1 = 0(Non-Hate) 1(Hate)
personal:  1 = 1(Non-Hate) 0(Hate)
hijas:  2 = 0(Non-Hate) 2(Hate)
reventarnos:  1 = 0(Non-Hate) 1(Hate)
facundo:  1 = 1(Non-Hate) 0(Hate)
paraguayo:  1 = 1(Non-Hate) 0(Hate)
papichamp:  1 = 1(Non-Hate) 0(Hate)
autocritica:  1 = 1(Non-Hate) 0(Hate)
ficcion:  1 = 0(Non-Hate) 1(Hate)
comportamientos:  1 = 0(Non-Hate) 1(Hate)
espalda:  1 = 1(Non-Hate) 0(Hate)
sigan:  1 = 0(Non-Hate) 1(Hate)
estacion:  1 = 1(Non-Hate) 0(Hate)
cordoba:  1 = 0(Non-Hate) 1(Hate)
redes:  2 = 1(Non-Hate) 1(Hate)
gueto:  1 = 0(Non-Hate) 1(Hate)
europeas:  1 = 1(Non-Hate) 0(Hate)
llaman:  2 = 1(Non-Hate) 1(Hate)
iros:  1 = 1(Non-Hate) 0(Hate)
personas:  3 = 3(Non-Hate) 0(Hate)
fin:  4 = 1(Non-Hate) 3(Hate)
vendre:  1 = 0(Non-Hate) 1(Hate)
imposible:  1 = 1(Non-Hate) 0(Hate)
borrando:  1 = 0(Non-Hate) 1(Hate)
sillas:  1 = 0(Non-Hate) 1(Hate)
prontuario:  1 = 0(Non-Hate) 1(Hate)
mutante:  1 = 0(Non-Hate) 1(Hate)
tias:  1 = 0(Non-Hate) 1(Hate)
tenes:  3 = 1(Non-Hate) 2(Hate)
decirme:  1 = 1(Non-Hate) 0(Hate)
integrarse:  1 = 0(Non-Hate) 1(Hate)
noches:  1 = 1(Non-Hate) 0(Hate)
economico:  1 = 1(Non-Hate) 0(Hate)
moros:  6 = 0(Non-Hate) 6(Hate)
pesos:  1 = 1(Non-Hate) 0(Hate)
ruin:  1 = 0(Non-Hate) 1(Hate)
correcto:  1 = 1(Non-Hate) 0(Hate)
callado:  1 = 1(Non-Hate) 0(Hate)
arriba:  2 = 2(Non-Hate) 0(Hate)
carcel:  2 = 1(Non-Hate) 1(Hate)
venda:  1 = 1(Non-Hate) 0(Hate)
camaras:  1 = 1(Non-Hate) 0(Hate)
hagamos:  1 = 1(Non-Hate) 0(Hate)
abuso:  1 = 1(Non-Hate) 0(Hate)
provocar:  1 = 1(Non-Hate) 0(Hate)
imparten:  1 = 1(Non-Hate) 0(Hate)
alfombra:  1 = 0(Non-Hate) 1(Hate)
inocente:  1 = 0(Non-Hate) 1(Hate)
sexy:  1 = 1(Non-Hate) 0(Hate)
porfavor:  1 = 1(Non-Hate) 0(Hate)
cinico:  1 = 1(Non-Hate) 0(Hate)
viajado:  1 = 1(Non-Hate) 0(Hate)
descubre:  1 = 1(Non-Hate) 0(Hate)
aguantar:  1 = 1(Non-Hate) 0(Hate)
mammon:  1 = 1(Non-Hate) 0(Hate)
tio:  3 = 3(Non-Hate) 0(Hate)
ignorante:  1 = 0(Non-Hate) 1(Hate)
abasto:  1 = 0(Non-Hate) 1(Hate)
enganar:  1 = 0(Non-Hate) 1(Hate)
marruecos:  2 = 1(Non-Hate) 1(Hate)
deportista:  1 = 0(Non-Hate) 1(Hate)
ridicula:  1 = 0(Non-Hate) 1(Hate)
egiosque:  1 = 1(Non-Hate) 0(Hate)
vistas:  1 = 1(Non-Hate) 0(Hate)
des:  1 = 0(Non-Hate) 1(Hate)
vuelvo:  1 = 1(Non-Hate) 0(Hate)
grites:  1 = 0(Non-Hate) 1(Hate)
dolio:  1 = 0(Non-Hate) 1(Hate)
empezamos:  2 = 1(Non-Hate) 1(Hate)
hdp:  1 = 0(Non-Hate) 1(Hate)
ando:  2 = 2(Non-Hate) 0(Hate)
simios:  1 = 0(Non-Hate) 1(Hate)
gloria:  1 = 1(Non-Hate) 0(Hate)
nacis:  1 = 0(Non-Hate) 1(Hate)
falafel:  1 = 1(Non-Hate) 0(Hate)
sol:  1 = 0(Non-Hate) 1(Hate)
grandisima:  1 = 1(Non-Hate) 0(Hate)
residente:  1 = 1(Non-Hate) 0(Hate)
rolo:  2 = 1(Non-Hate) 1(Hate)
empate:  1 = 1(Non-Hate) 0(Hate)
nominacion:  1 = 1(Non-Hate) 0(Hate)
chicos:  1 = 0(Non-Hate) 1(Hate)
news:  1 = 1(Non-Hate) 0(Hate)
pez:  1 = 0(Non-Hate) 1(Hate)
endulzado:  1 = 0(Non-Hate) 1(Hate)
empalen:  1 = 1(Non-Hate) 0(Hate)
gana:  3 = 3(Non-Hate) 0(Hate)
joto:  1 = 1(Non-Hate) 0(Hate)
dibujos:  1 = 1(Non-Hate) 0(Hate)
policiales:  1 = 1(Non-Hate) 0(Hate)
espero:  2 = 1(Non-Hate) 1(Hate)
ahhh:  1 = 1(Non-Hate) 0(Hate)
pasan:  3 = 1(Non-Hate) 2(Hate)
recibirlos:  1 = 0(Non-Hate) 1(Hate)
darles:  2 = 0(Non-Hate) 2(Hate)
duro:  2 = 1(Non-Hate) 1(Hate)
sale:  5 = 2(Non-Hate) 3(Hate)
insultan:  1 = 0(Non-Hate) 1(Hate)
imperialismo:  1 = 1(Non-Hate) 0(Hate)
retroceso:  1 = 1(Non-Hate) 0(Hate)
morirte:  1 = 1(Non-Hate) 0(Hate)
util:  1 = 0(Non-Hate) 1(Hate)
busca:  2 = 2(Non-Hate) 0(Hate)
ir:  2 = 1(Non-Hate) 1(Hate)
salvaje:  1 = 0(Non-Hate) 1(Hate)
coreanos:  1 = 1(Non-Hate) 0(Hate)
entender:  2 = 2(Non-Hate) 0(Hate)
mios:  1 = 0(Non-Hate) 1(Hate)
perro:  2 = 2(Non-Hate) 0(Hate)
dificil:  1 = 1(Non-Hate) 0(Hate)
explicado:  1 = 0(Non-Hate) 1(Hate)
solo:  23 = 15(Non-Hate) 8(Hate)
saltando:  1 = 0(Non-Hate) 1(Hate)
cruel:  1 = 1(Non-Hate) 0(Hate)
magica:  1 = 1(Non-Hate) 0(Hate)
traicionado:  1 = 0(Non-Hate) 1(Hate)
esclavas:  1 = 1(Non-Hate) 0(Hate)
superior:  1 = 1(Non-Hate) 0(Hate)
violaron:  1 = 1(Non-Hate) 0(Hate)
shizuka:  1 = 0(Non-Hate) 1(Hate)
fiestas:  1 = 1(Non-Hate) 0(Hate)
guatemala:  1 = 1(Non-Hate) 0(Hate)
favor:  2 = 0(Non-Hate) 2(Hate)
gastarse:  2 = 2(Non-Hate) 0(Hate)
i:  3 = 2(Non-Hate) 1(Hate)
tos:  1 = 0(Non-Hate) 1(Hate)
ajuste:  1 = 1(Non-Hate) 0(Hate)
cumples:  1 = 1(Non-Hate) 0(Hate)
fifa:  1 = 1(Non-Hate) 0(Hate)
enamorada:  3 = 1(Non-Hate) 2(Hate)
calor:  2 = 0(Non-Hate) 2(Hate)
silla:  3 = 1(Non-Hate) 2(Hate)
lpm:  3 = 3(Non-Hate) 0(Hate)
preparaos:  1 = 0(Non-Hate) 1(Hate)
sudakas:  1 = 0(Non-Hate) 1(Hate)
orto:  2 = 2(Non-Hate) 0(Hate)
peruanos:  1 = 0(Non-Hate) 1(Hate)
joderia:  1 = 1(Non-Hate) 0(Hate)
presuponeis:  1 = 0(Non-Hate) 1(Hate)
revuelven:  1 = 1(Non-Hate) 0(Hate)
traerme:  1 = 1(Non-Hate) 0(Hate)
manipulamos:  1 = 1(Non-Hate) 0(Hate)
ponerme:  1 = 1(Non-Hate) 0(Hate)
lenin:  1 = 0(Non-Hate) 1(Hate)
polla:  19 = 13(Non-Hate) 6(Hate)
goces:  1 = 0(Non-Hate) 1(Hate)
diversos:  1 = 1(Non-Hate) 0(Hate)
voluntad:  1 = 0(Non-Hate) 1(Hate)
solucion:  4 = 2(Non-Hate) 2(Hate)
planeta:  1 = 0(Non-Hate) 1(Hate)
opinar:  2 = 1(Non-Hate) 1(Hate)
usando:  2 = 2(Non-Hate) 0(Hate)
fav:  1 = 1(Non-Hate) 0(Hate)
britney:  1 = 0(Non-Hate) 1(Hate)
vecino:  4 = 3(Non-Hate) 1(Hate)
asesino:  1 = 1(Non-Hate) 0(Hate)
tarde:  2 = 1(Non-Hate) 1(Hate)
europea:  1 = 0(Non-Hate) 1(Hate)
comic:  1 = 0(Non-Hate) 1(Hate)
agrego:  1 = 1(Non-Hate) 0(Hate)
malla:  1 = 0(Non-Hate) 1(Hate)
tonterias:  7 = 7(Non-Hate) 0(Hate)
becerro:  1 = 1(Non-Hate) 0(Hate)
diria:  1 = 0(Non-Hate) 1(Hate)
articulos:  1 = 1(Non-Hate) 0(Hate)
fondo:  2 = 1(Non-Hate) 1(Hate)
generalice:  1 = 0(Non-Hate) 1(Hate)
haces:  2 = 2(Non-Hate) 0(Hate)
bizcochitooo:  1 = 0(Non-Hate) 1(Hate)
alguien:  6 = 5(Non-Hate) 1(Hate)
mojadas:  1 = 0(Non-Hate) 1(Hate)
rumor:  1 = 1(Non-Hate) 0(Hate)
exigiendo:  1 = 0(Non-Hate) 1(Hate)
hambre:  1 = 0(Non-Hate) 1(Hate)
cosa:  3 = 3(Non-Hate) 0(Hate)
traduccion:  2 = 1(Non-Hate) 1(Hate)
reaccionen:  1 = 0(Non-Hate) 1(Hate)
violadores:  2 = 2(Non-Hate) 0(Hate)
aviso:  1 = 1(Non-Hate) 0(Hate)
atenta:  2 = 0(Non-Hate) 2(Hate)
wperez:  1 = 1(Non-Hate) 0(Hate)
explicas:  1 = 0(Non-Hate) 1(Hate)
senora:  4 = 1(Non-Hate) 3(Hate)
cabida:  1 = 1(Non-Hate) 0(Hate)
cisticerco:  1 = 0(Non-Hate) 1(Hate)
entiendo:  1 = 0(Non-Hate) 1(Hate)
robotico:  1 = 1(Non-Hate) 0(Hate)
veo:  1 = 1(Non-Hate) 0(Hate)
tengais:  1 = 1(Non-Hate) 0(Hate)
evitar:  1 = 0(Non-Hate) 1(Hate)
mama:  4 = 1(Non-Hate) 3(Hate)
supieran:  1 = 0(Non-Hate) 1(Hate)
celebralo:  1 = 1(Non-Hate) 0(Hate)
venecos:  1 = 0(Non-Hate) 1(Hate)
molestado:  1 = 0(Non-Hate) 1(Hate)
pueda:  1 = 1(Non-Hate) 0(Hate)
cabo:  2 = 1(Non-Hate) 1(Hate)
imponga:  1 = 0(Non-Hate) 1(Hate)
roja:  1 = 1(Non-Hate) 0(Hate)
voy:  16 = 11(Non-Hate) 5(Hate)
culazo:  1 = 0(Non-Hate) 1(Hate)
ph:  1 = 1(Non-Hate) 0(Hate)
jodida:  1 = 1(Non-Hate) 0(Hate)
sigo:  2 = 2(Non-Hate) 0(Hate)
seis:  1 = 0(Non-Hate) 1(Hate)
entiendes:  1 = 1(Non-Hate) 0(Hate)
dolor:  2 = 1(Non-Hate) 1(Hate)
maleante:  1 = 1(Non-Hate) 0(Hate)
verdad:  5 = 3(Non-Hate) 2(Hate)
poblana:  1 = 1(Non-Hate) 0(Hate)
muerte:  1 = 1(Non-Hate) 0(Hate)
rivera:  2 = 1(Non-Hate) 1(Hate)
detalles:  1 = 1(Non-Hate) 0(Hate)
version:  1 = 1(Non-Hate) 0(Hate)
dejo:  1 = 0(Non-Hate) 1(Hate)
amigas:  1 = 0(Non-Hate) 1(Hate)
compartir:  1 = 0(Non-Hate) 1(Hate)
mamaguebo:  1 = 0(Non-Hate) 1(Hate)
leyes:  1 = 1(Non-Hate) 0(Hate)
zorra:  48 = 7(Non-Hate) 41(Hate)
ideas:  1 = 0(Non-Hate) 1(Hate)
canticos:  1 = 0(Non-Hate) 1(Hate)
hecho:  4 = 4(Non-Hate) 0(Hate)
madre:  36 = 31(Non-Hate) 5(Hate)
entrada:  4 = 0(Non-Hate) 4(Hate)
maldonado:  1 = 0(Non-Hate) 1(Hate)
priista:  1 = 0(Non-Hate) 1(Hate)
docena:  2 = 1(Non-Hate) 1(Hate)
conceden:  1 = 0(Non-Hate) 1(Hate)
arquero:  1 = 1(Non-Hate) 0(Hate)
tw:  1 = 1(Non-Hate) 0(Hate)
tia:  1 = 1(Non-Hate) 0(Hate)
biblioteca:  1 = 1(Non-Hate) 0(Hate)
gays:  1 = 1(Non-Hate) 0(Hate)
juegos:  1 = 1(Non-Hate) 0(Hate)
propongo:  1 = 1(Non-Hate) 0(Hate)
discurso:  1 = 0(Non-Hate) 1(Hate)
exacto:  2 = 0(Non-Hate) 2(Hate)
concertinas:  2 = 0(Non-Hate) 2(Hate)
venga:  1 = 0(Non-Hate) 1(Hate)
populusmo:  1 = 1(Non-Hate) 0(Hate)
momia:  1 = 0(Non-Hate) 1(Hate)
jajajajaajajajajajaa:  1 = 0(Non-Hate) 1(Hate)
gobiernos:  3 = 2(Non-Hate) 1(Hate)
bandido:  1 = 1(Non-Hate) 0(Hate)
kerias:  1 = 0(Non-Hate) 1(Hate)
reportaron:  1 = 1(Non-Hate) 0(Hate)
benengeli:  1 = 1(Non-Hate) 0(Hate)
ceuta:  5 = 2(Non-Hate) 3(Hate)
conversacion:  1 = 1(Non-Hate) 0(Hate)
derecha:  2 = 0(Non-Hate) 2(Hate)
trasero:  1 = 1(Non-Hate) 0(Hate)
personaje:  3 = 3(Non-Hate) 0(Hate)
flor:  2 = 2(Non-Hate) 0(Hate)
sueca:  1 = 0(Non-Hate) 1(Hate)
ladrona:  1 = 0(Non-Hate) 1(Hate)
islamistas:  1 = 0(Non-Hate) 1(Hate)
sirves:  1 = 1(Non-Hate) 0(Hate)
oliverga:  1 = 1(Non-Hate) 0(Hate)
autista:  1 = 1(Non-Hate) 0(Hate)
historial:  1 = 0(Non-Hate) 1(Hate)
falsas:  1 = 0(Non-Hate) 1(Hate)
lau:  1 = 1(Non-Hate) 0(Hate)
star:  1 = 1(Non-Hate) 0(Hate)
ensaladas:  1 = 1(Non-Hate) 0(Hate)
mentales:  1 = 1(Non-Hate) 0(Hate)
tocino:  1 = 0(Non-Hate) 1(Hate)
menti:  1 = 1(Non-Hate) 0(Hate)
alrededor:  1 = 0(Non-Hate) 1(Hate)
aguante:  1 = 1(Non-Hate) 0(Hate)
negativas:  1 = 0(Non-Hate) 1(Hate)
sevillistas:  3 = 0(Non-Hate) 3(Hate)
egoista:  1 = 0(Non-Hate) 1(Hate)
pagar:  2 = 0(Non-Hate) 2(Hate)
comida:  7 = 4(Non-Hate) 3(Hate)
qatar:  1 = 1(Non-Hate) 0(Hate)
europa:  4 = 1(Non-Hate) 3(Hate)
vive:  1 = 1(Non-Hate) 0(Hate)
haggis:  1 = 1(Non-Hate) 0(Hate)
porq:  3 = 3(Non-Hate) 0(Hate)
wyoming:  1 = 1(Non-Hate) 0(Hate)
septiembre:  1 = 1(Non-Hate) 0(Hate)
van:  6 = 2(Non-Hate) 4(Hate)
hermandad:  1 = 1(Non-Hate) 0(Hate)
grande:  2 = 1(Non-Hate) 1(Hate)
agradeceme:  1 = 0(Non-Hate) 1(Hate)
putas:  3 = 0(Non-Hate) 3(Hate)
quedarse:  2 = 2(Non-Hate) 0(Hate)
inmediata:  1 = 0(Non-Hate) 1(Hate)
aprendido:  1 = 1(Non-Hate) 0(Hate)
poblano:  1 = 0(Non-Hate) 1(Hate)
horrible:  1 = 1(Non-Hate) 0(Hate)
delincuentes:  2 = 0(Non-Hate) 2(Hate)
mundo:  10 = 8(Non-Hate) 2(Hate)
anda:  3 = 1(Non-Hate) 2(Hate)
llama:  3 = 2(Non-Hate) 1(Hate)
tema:  5 = 3(Non-Hate) 2(Hate)
virgen:  2 = 1(Non-Hate) 1(Hate)
todavia:  1 = 1(Non-Hate) 0(Hate)
ingles:  1 = 1(Non-Hate) 0(Hate)
aclarando:  1 = 1(Non-Hate) 0(Hate)
insistio:  1 = 1(Non-Hate) 0(Hate)
llevando:  1 = 1(Non-Hate) 0(Hate)
sientes:  2 = 1(Non-Hate) 1(Hate)
fuerte:  1 = 0(Non-Hate) 1(Hate)
suenas:  1 = 0(Non-Hate) 1(Hate)
sexual:  4 = 4(Non-Hate) 0(Hate)
represion:  1 = 1(Non-Hate) 0(Hate)
bloqueo:  1 = 1(Non-Hate) 0(Hate)
puede:  7 = 2(Non-Hate) 5(Hate)
pendejo:  4 = 3(Non-Hate) 1(Hate)
cuanto:  1 = 1(Non-Hate) 0(Hate)
pelo:  3 = 3(Non-Hate) 0(Hate)
dar:  5 = 3(Non-Hate) 2(Hate)
traficantes:  1 = 0(Non-Hate) 1(Hate)
soncomo:  1 = 0(Non-Hate) 1(Hate)
adefesio:  1 = 0(Non-Hate) 1(Hate)
entendimiento:  1 = 1(Non-Hate) 0(Hate)
lol:  1 = 1(Non-Hate) 0(Hate)
primera:  3 = 2(Non-Hate) 1(Hate)
principios:  1 = 0(Non-Hate) 1(Hate)
mexico:  1 = 0(Non-Hate) 1(Hate)
indignan:  1 = 0(Non-Hate) 1(Hate)
dicen:  4 = 2(Non-Hate) 2(Hate)
sepa:  1 = 1(Non-Hate) 0(Hate)
x:  2 = 2(Non-Hate) 0(Hate)
quiere:  7 = 3(Non-Hate) 4(Hate)
coreo:  1 = 1(Non-Hate) 0(Hate)
venezuela:  5 = 3(Non-Hate) 2(Hate)
terrible:  1 = 1(Non-Hate) 0(Hate)
dormido:  3 = 2(Non-Hate) 1(Hate)
gustan:  2 = 0(Non-Hate) 2(Hate)
bueeeen:  1 = 0(Non-Hate) 1(Hate)
viajar:  1 = 1(Non-Hate) 0(Hate)
abrazos:  1 = 0(Non-Hate) 1(Hate)
cuales:  1 = 1(Non-Hate) 0(Hate)
salieron:  1 = 0(Non-Hate) 1(Hate)
impartan:  1 = 1(Non-Hate) 0(Hate)
salvacion:  1 = 1(Non-Hate) 0(Hate)
echandose:  1 = 1(Non-Hate) 0(Hate)
inclinacion:  1 = 1(Non-Hate) 0(Hate)
explico:  1 = 0(Non-Hate) 1(Hate)
casualidad:  2 = 1(Non-Hate) 1(Hate)
manera:  2 = 2(Non-Hate) 0(Hate)
complot:  1 = 0(Non-Hate) 1(Hate)
parasitos:  1 = 0(Non-Hate) 1(Hate)
teni:  1 = 0(Non-Hate) 1(Hate)
gritando:  1 = 0(Non-Hate) 1(Hate)
maldicion:  1 = 0(Non-Hate) 1(Hate)
semana:  3 = 3(Non-Hate) 0(Hate)
rebotao:  1 = 0(Non-Hate) 1(Hate)
anabel:  1 = 0(Non-Hate) 1(Hate)
diferente:  1 = 0(Non-Hate) 1(Hate)
respetable:  1 = 0(Non-Hate) 1(Hate)
juan:  1 = 1(Non-Hate) 0(Hate)
hablar:  3 = 2(Non-Hate) 1(Hate)
dejate:  1 = 1(Non-Hate) 0(Hate)
personalidad:  1 = 1(Non-Hate) 0(Hate)
recoge:  1 = 0(Non-Hate) 1(Hate)
acaso:  1 = 1(Non-Hate) 0(Hate)
empresarios:  1 = 0(Non-Hate) 1(Hate)
erda:  1 = 1(Non-Hate) 0(Hate)
podra:  1 = 1(Non-Hate) 0(Hate)
retrazado:  1 = 1(Non-Hate) 0(Hate)
miserable:  1 = 1(Non-Hate) 0(Hate)
desgracido:  1 = 1(Non-Hate) 0(Hate)
co:  1 = 1(Non-Hate) 0(Hate)
bastaaaa:  1 = 1(Non-Hate) 0(Hate)
bienvenida:  1 = 0(Non-Hate) 1(Hate)
trataria:  1 = 0(Non-Hate) 1(Hate)
internos:  1 = 1(Non-Hate) 0(Hate)
nervioso:  1 = 0(Non-Hate) 1(Hate)
intelectuales:  1 = 1(Non-Hate) 0(Hate)
derechos:  1 = 1(Non-Hate) 0(Hate)
ensenarle:  2 = 1(Non-Hate) 1(Hate)
razon:  2 = 2(Non-Hate) 0(Hate)
llegamos:  1 = 1(Non-Hate) 0(Hate)
podria:  2 = 0(Non-Hate) 2(Hate)
cambio:  1 = 0(Non-Hate) 1(Hate)
puerta:  2 = 1(Non-Hate) 1(Hate)
pendeja:  2 = 0(Non-Hate) 2(Hate)
solis:  1 = 1(Non-Hate) 0(Hate)
acueste:  1 = 0(Non-Hate) 1(Hate)
desayuno:  1 = 1(Non-Hate) 0(Hate)
hendaya:  1 = 1(Non-Hate) 0(Hate)
perfil:  2 = 0(Non-Hate) 2(Hate)
lanza:  1 = 0(Non-Hate) 1(Hate)
investigaciones:  1 = 1(Non-Hate) 0(Hate)
absoluto:  1 = 0(Non-Hate) 1(Hate)
espera:  2 = 1(Non-Hate) 1(Hate)
raul:  1 = 0(Non-Hate) 1(Hate)
sabe:  4 = 2(Non-Hate) 2(Hate)
comer:  1 = 0(Non-Hate) 1(Hate)
gusta:  8 = 3(Non-Hate) 5(Hate)
mundial:  1 = 1(Non-Hate) 0(Hate)
casa:  1 = 1(Non-Hate) 0(Hate)
patriarcado:  1 = 0(Non-Hate) 1(Hate)
padre:  1 = 1(Non-Hate) 0(Hate)
tv:  1 = 0(Non-Hate) 1(Hate)
gata:  2 = 0(Non-Hate) 2(Hate)
presidente:  3 = 2(Non-Hate) 1(Hate)
hablando:  2 = 1(Non-Hate) 1(Hate)
semen:  1 = 0(Non-Hate) 1(Hate)
crimenes:  1 = 1(Non-Hate) 0(Hate)
entrado:  1 = 0(Non-Hate) 1(Hate)
ojala:  5 = 4(Non-Hate) 1(Hate)
xk:  1 = 0(Non-Hate) 1(Hate)
aclarado:  1 = 1(Non-Hate) 0(Hate)
recibiras:  1 = 1(Non-Hate) 0(Hate)
hobitt:  1 = 0(Non-Hate) 1(Hate)
valores:  1 = 0(Non-Hate) 1(Hate)
cuestionar:  1 = 1(Non-Hate) 0(Hate)
nena:  1 = 0(Non-Hate) 1(Hate)
lleva:  1 = 1(Non-Hate) 0(Hate)
chone:  1 = 1(Non-Hate) 0(Hate)
traga:  1 = 0(Non-Hate) 1(Hate)
cuaderno:  1 = 1(Non-Hate) 0(Hate)
asusta:  1 = 1(Non-Hate) 0(Hate)
normales:  1 = 0(Non-Hate) 1(Hate)
bueno:  6 = 5(Non-Hate) 1(Hate)
etc:  3 = 1(Non-Hate) 2(Hate)
rajoy:  1 = 1(Non-Hate) 0(Hate)
vuelos:  1 = 1(Non-Hate) 0(Hate)
izada:  1 = 1(Non-Hate) 0(Hate)
precioso:  1 = 1(Non-Hate) 0(Hate)
llega:  1 = 0(Non-Hate) 1(Hate)
mereceis:  5 = 5(Non-Hate) 0(Hate)
follan:  1 = 0(Non-Hate) 1(Hate)
fotos:  4 = 4(Non-Hate) 0(Hate)
pussy:  2 = 2(Non-Hate) 0(Hate)
peli:  1 = 1(Non-Hate) 0(Hate)
tenia:  4 = 2(Non-Hate) 2(Hate)
buena:  2 = 1(Non-Hate) 1(Hate)
sentar:  1 = 0(Non-Hate) 1(Hate)
basicamente:  1 = 0(Non-Hate) 1(Hate)
noticia:  2 = 0(Non-Hate) 2(Hate)
simbolo:  1 = 1(Non-Hate) 0(Hate)
destino:  1 = 1(Non-Hate) 0(Hate)
decirle:  1 = 1(Non-Hate) 0(Hate)
mussolini:  1 = 1(Non-Hate) 0(Hate)
cortando:  1 = 1(Non-Hate) 0(Hate)
llego:  1 = 0(Non-Hate) 1(Hate)
dignidad:  1 = 0(Non-Hate) 1(Hate)
alegro:  2 = 0(Non-Hate) 2(Hate)
aprende:  2 = 2(Non-Hate) 0(Hate)
opina:  1 = 1(Non-Hate) 0(Hate)
conazo:  1 = 1(Non-Hate) 0(Hate)
lleno:  1 = 1(Non-Hate) 0(Hate)
viven:  1 = 0(Non-Hate) 1(Hate)
anos:  8 = 3(Non-Hate) 5(Hate)
camiseta:  1 = 1(Non-Hate) 0(Hate)
canal:  1 = 1(Non-Hate) 0(Hate)
concha:  1 = 0(Non-Hate) 1(Hate)
fallo:  1 = 0(Non-Hate) 1(Hate)
hare:  1 = 1(Non-Hate) 0(Hate)
tentacion:  1 = 0(Non-Hate) 1(Hate)
incitador:  1 = 0(Non-Hate) 1(Hate)
USUARIO:  327 = 179(Non-Hate) 148(Hate)
cenote:  1 = 1(Non-Hate) 0(Hate)
respirando:  1 = 1(Non-Hate) 0(Hate)
marroqui:  1 = 0(Non-Hate) 1(Hate)
casos:  2 = 2(Non-Hate) 0(Hate)
casi:  4 = 2(Non-Hate) 2(Hate)
rollo:  1 = 1(Non-Hate) 0(Hate)
estariamos:  2 = 2(Non-Hate) 0(Hate)
musulmonos:  1 = 0(Non-Hate) 1(Hate)
prometiste:  1 = 1(Non-Hate) 0(Hate)
politica:  2 = 0(Non-Hate) 2(Hate)
diste:  1 = 0(Non-Hate) 1(Hate)
derbi:  1 = 0(Non-Hate) 1(Hate)
multicultural:  1 = 0(Non-Hate) 1(Hate)
hrs:  2 = 1(Non-Hate) 1(Hate)
meme:  1 = 1(Non-Hate) 0(Hate)
rumbo:  1 = 0(Non-Hate) 1(Hate)
paciente:  1 = 1(Non-Hate) 0(Hate)
cuentas:  1 = 1(Non-Hate) 0(Hate)
residencias:  1 = 1(Non-Hate) 0(Hate)
retrotraer:  1 = 0(Non-Hate) 1(Hate)
tras:  6 = 3(Non-Hate) 3(Hate)
oistes:  1 = 0(Non-Hate) 1(Hate)
ensenarnos:  1 = 1(Non-Hate) 0(Hate)
wey:  1 = 0(Non-Hate) 1(Hate)
estava:  1 = 0(Non-Hate) 1(Hate)
cortometraje:  1 = 1(Non-Hate) 0(Hate)
rt:  2 = 1(Non-Hate) 1(Hate)
tannnnn:  1 = 1(Non-Hate) 0(Hate)
twitter:  3 = 3(Non-Hate) 0(Hate)
llamo:  1 = 0(Non-Hate) 1(Hate)
acosando:  1 = 0(Non-Hate) 1(Hate)
darko:  1 = 1(Non-Hate) 0(Hate)
mb:  1 = 0(Non-Hate) 1(Hate)
desgraciada:  1 = 0(Non-Hate) 1(Hate)
buenismo:  1 = 0(Non-Hate) 1(Hate)
recibir:  1 = 1(Non-Hate) 0(Hate)
cartel:  1 = 0(Non-Hate) 1(Hate)
destacaba:  1 = 0(Non-Hate) 1(Hate)
quedo:  2 = 0(Non-Hate) 2(Hate)
elena:  1 = 1(Non-Hate) 0(Hate)
manden:  1 = 1(Non-Hate) 0(Hate)
jjajajajajajajaajja:  1 = 0(Non-Hate) 1(Hate)
